EESchema Schematic File Version 4
EELAYER 30 0
EELAYER END
$Descr A4 11693 8268
encoding utf-8
Sheet 37 41
Title "Battery Charge Regulator"
Date ""
Rev ""
Comp "LibreCube"
Comment1 ""
Comment2 ""
Comment3 ""
Comment4 ""
$EndDescr
Text HLabel 2800 2750 0    60   Input ~ 0
IN
Text HLabel 8050 2750 2    60   Output ~ 0
OUT
$Comp
L mylib:bq24002 U?
U 1 1 59824991
P 5850 3450
AR Path="/59811E48/59824991" Ref="U?"  Part="1" 
AR Path="/598129F4/59824991" Ref="U?"  Part="1" 
AR Path="/5E4D81A8/5E4DE9C5/59824991" Ref="U31"  Part="1" 
AR Path="/5E4D81A8/5E4DE9D8/59824991" Ref="U34"  Part="1" 
F 0 "U34" H 5850 3700 50  0000 C CNN
F 1 "bq24002" H 5600 2400 50  0000 C CNN
F 2 "Package_SO:HTSSOP-20-1EP_4.4x6.5mm_P0.65mm_EP3.4x6.5mm" H 5850 3800 60  0001 C CNN
F 3 "" H 5850 3800 60  0000 C CNN
	1    5850 3450
	1    0    0    -1  
$EndComp
$Comp
L Device:R R?
U 1 1 59824A80
P 4350 2750
AR Path="/59811E48/59824A80" Ref="R?"  Part="1" 
AR Path="/598129F4/59824A80" Ref="R?"  Part="1" 
AR Path="/5E4D81A8/5E4DE9C5/59824A80" Ref="R52"  Part="1" 
AR Path="/5E4D81A8/5E4DE9D8/59824A80" Ref="R62"  Part="1" 
F 0 "R62" V 4430 2750 50  0000 C CNN
F 1 "0.1" V 4350 2750 50  0000 C CNN
F 2 "Resistor_SMD:R_0805_2012Metric" V 4280 2750 50  0001 C CNN
F 3 "" H 4350 2750 50  0000 C CNN
	1    4350 2750
	0    1    1    0   
$EndComp
Wire Wire Line
	4850 3350 5100 3350
Wire Wire Line
	4850 2750 4850 2950
Wire Wire Line
	5100 2950 4850 2950
Connection ~ 4850 2950
Connection ~ 4850 2750
Wire Wire Line
	4000 2750 4000 3150
Connection ~ 4000 2750
$Comp
L Device:C C?
U 1 1 59824B62
P 3700 2900
AR Path="/59811E48/59824B62" Ref="C?"  Part="1" 
AR Path="/598129F4/59824B62" Ref="C?"  Part="1" 
AR Path="/5E4D81A8/5E4DE9C5/59824B62" Ref="C45"  Part="1" 
AR Path="/5E4D81A8/5E4DE9D8/59824B62" Ref="C53"  Part="1" 
F 0 "C53" H 3725 3000 50  0000 L CNN
F 1 "10uF" H 3725 2800 50  0000 L CNN
F 2 "Capacitor_SMD:C_1206_3216Metric" H 3738 2750 50  0001 C CNN
F 3 "" H 3700 2900 50  0000 C CNN
	1    3700 2900
	1    0    0    -1  
$EndComp
Connection ~ 4000 3150
$Comp
L Device:R R?
U 1 1 59824BAF
P 4300 3300
AR Path="/59811E48/59824BAF" Ref="R?"  Part="1" 
AR Path="/598129F4/59824BAF" Ref="R?"  Part="1" 
AR Path="/5E4D81A8/5E4DE9C5/59824BAF" Ref="R50"  Part="1" 
AR Path="/5E4D81A8/5E4DE9D8/59824BAF" Ref="R60"  Part="1" 
F 0 "R60" V 4380 3300 50  0000 C CNN
F 1 "309k" V 4300 3300 50  0000 C CNN
F 2 "Resistor_SMD:R_0805_2012Metric" V 4230 3300 50  0001 C CNN
F 3 "" H 4300 3300 50  0000 C CNN
	1    4300 3300
	1    0    0    -1  
$EndComp
Wire Wire Line
	4300 3450 4550 3450
Wire Wire Line
	4550 3450 4550 3750
Wire Wire Line
	4550 3750 5100 3750
$Comp
L Device:R R?
U 1 1 59824D08
P 4550 4100
AR Path="/59811E48/59824D08" Ref="R?"  Part="1" 
AR Path="/598129F4/59824D08" Ref="R?"  Part="1" 
AR Path="/5E4D81A8/5E4DE9C5/59824D08" Ref="R53"  Part="1" 
AR Path="/5E4D81A8/5E4DE9D8/59824D08" Ref="R63"  Part="1" 
F 0 "R63" V 4630 4100 50  0000 C CNN
F 1 "0" V 4550 4100 50  0000 C CNN
F 2 "Resistor_SMD:R_0805_2012Metric" V 4480 4100 50  0001 C CNN
F 3 "" H 4550 4100 50  0000 C CNN
	1    4550 4100
	1    0    0    -1  
$EndComp
$Comp
L Device:R R?
U 1 1 59824D75
P 4550 4400
AR Path="/59811E48/59824D75" Ref="R?"  Part="1" 
AR Path="/598129F4/59824D75" Ref="R?"  Part="1" 
AR Path="/5E4D81A8/5E4DE9C5/59824D75" Ref="R54"  Part="1" 
AR Path="/5E4D81A8/5E4DE9D8/59824D75" Ref="R64"  Part="1" 
F 0 "R64" V 4630 4400 50  0000 C CNN
F 1 "0" V 4550 4400 50  0000 C CNN
F 2 "Resistor_SMD:R_0805_2012Metric" V 4480 4400 50  0001 C CNN
F 3 "" H 4550 4400 50  0000 C CNN
	1    4550 4400
	1    0    0    -1  
$EndComp
Wire Wire Line
	4550 4250 4800 4250
Wire Wire Line
	4800 4250 4800 4150
Wire Wire Line
	4800 4150 5100 4150
Text Notes 4250 4150 0    60   ~ 0
4.2V
Text Notes 4250 4450 0    60   ~ 0
4.1V
Text Notes 3600 4300 0    60   ~ 0
Select EOC voltage
$Comp
L Device:C C?
U 1 1 59824FDC
P 7350 2900
AR Path="/59811E48/59824FDC" Ref="C?"  Part="1" 
AR Path="/598129F4/59824FDC" Ref="C?"  Part="1" 
AR Path="/5E4D81A8/5E4DE9C5/59824FDC" Ref="C48"  Part="1" 
AR Path="/5E4D81A8/5E4DE9D8/59824FDC" Ref="C56"  Part="1" 
F 0 "C56" H 7375 3000 50  0000 L CNN
F 1 "10uF" H 7375 2800 50  0000 L CNN
F 2 "Capacitor_SMD:C_1206_3216Metric" H 7388 2750 50  0001 C CNN
F 3 "" H 7350 2900 50  0000 C CNN
	1    7350 2900
	1    0    0    -1  
$EndComp
Wire Wire Line
	6600 2750 6850 2750
Wire Wire Line
	6600 2950 6850 2950
Wire Wire Line
	6850 2750 6850 2950
Connection ~ 6850 2750
Wire Wire Line
	6850 3150 6600 3150
Connection ~ 6850 2950
$Comp
L Device:C C?
U 1 1 598250E9
P 6850 4300
AR Path="/59811E48/598250E9" Ref="C?"  Part="1" 
AR Path="/598129F4/598250E9" Ref="C?"  Part="1" 
AR Path="/5E4D81A8/5E4DE9C5/598250E9" Ref="C46"  Part="1" 
AR Path="/5E4D81A8/5E4DE9D8/598250E9" Ref="C54"  Part="1" 
F 0 "C54" H 6875 4400 50  0000 L CNN
F 1 "0.22uF" H 6875 4200 50  0000 L CNN
F 2 "Capacitor_SMD:C_0805_2012Metric" H 6888 4150 50  0001 C CNN
F 3 "" H 6850 4300 50  0000 C CNN
	1    6850 4300
	1    0    0    -1  
$EndComp
$Comp
L Device:C C?
U 1 1 59825118
P 7200 4300
AR Path="/59811E48/59825118" Ref="C?"  Part="1" 
AR Path="/598129F4/59825118" Ref="C?"  Part="1" 
AR Path="/5E4D81A8/5E4DE9C5/59825118" Ref="C47"  Part="1" 
AR Path="/5E4D81A8/5E4DE9D8/59825118" Ref="C55"  Part="1" 
F 0 "C55" H 7225 4400 50  0000 L CNN
F 1 "10pf" H 7225 4200 50  0000 L CNN
F 2 "Capacitor_SMD:C_0805_2012Metric" H 7238 4150 50  0001 C CNN
F 3 "" H 7200 4300 50  0000 C CNN
	1    7200 4300
	1    0    0    -1  
$EndComp
Wire Wire Line
	6600 4150 6850 4150
Wire Wire Line
	6600 3950 7200 3950
Wire Wire Line
	7200 3950 7200 4150
$Comp
L Device:D D?
U 1 1 598252C5
P 7550 3750
AR Path="/59811E48/598252C5" Ref="D?"  Part="1" 
AR Path="/598129F4/598252C5" Ref="D?"  Part="1" 
AR Path="/5E4D81A8/5E4DE9C5/598252C5" Ref="D18"  Part="1" 
AR Path="/5E4D81A8/5E4DE9D8/598252C5" Ref="D20"  Part="1" 
F 0 "D20" H 7550 3850 50  0000 C CNN
F 1 "LED" H 7550 3650 50  0000 C CNN
F 2 "Diode_SMD:D_0805_2012Metric" H 7550 3750 50  0001 C CNN
F 3 "" H 7550 3750 50  0000 C CNN
	1    7550 3750
	1    0    0    -1  
$EndComp
$Comp
L Device:D D?
U 1 1 59825380
P 7550 3550
AR Path="/59811E48/59825380" Ref="D?"  Part="1" 
AR Path="/598129F4/59825380" Ref="D?"  Part="1" 
AR Path="/5E4D81A8/5E4DE9C5/59825380" Ref="D17"  Part="1" 
AR Path="/5E4D81A8/5E4DE9D8/59825380" Ref="D19"  Part="1" 
F 0 "D19" H 7550 3650 50  0000 C CNN
F 1 "LED" H 7550 3450 50  0000 C CNN
F 2 "Diode_SMD:D_0805_2012Metric" H 7550 3550 50  0001 C CNN
F 3 "" H 7550 3550 50  0000 C CNN
	1    7550 3550
	1    0    0    -1  
$EndComp
$Comp
L Device:R R?
U 1 1 5982540D
P 7900 3550
AR Path="/59811E48/5982540D" Ref="R?"  Part="1" 
AR Path="/598129F4/5982540D" Ref="R?"  Part="1" 
AR Path="/5E4D81A8/5E4DE9C5/5982540D" Ref="R55"  Part="1" 
AR Path="/5E4D81A8/5E4DE9D8/5982540D" Ref="R65"  Part="1" 
F 0 "R65" V 7980 3550 50  0000 C CNN
F 1 "1.5k" V 7900 3550 50  0000 C CNN
F 2 "Resistor_SMD:R_0805_2012Metric" V 7830 3550 50  0001 C CNN
F 3 "" H 7900 3550 50  0000 C CNN
	1    7900 3550
	0    1    1    0   
$EndComp
$Comp
L Device:R R?
U 1 1 59825459
P 7900 3750
AR Path="/59811E48/59825459" Ref="R?"  Part="1" 
AR Path="/598129F4/59825459" Ref="R?"  Part="1" 
AR Path="/5E4D81A8/5E4DE9C5/59825459" Ref="R56"  Part="1" 
AR Path="/5E4D81A8/5E4DE9D8/59825459" Ref="R66"  Part="1" 
F 0 "R66" V 7980 3750 50  0000 C CNN
F 1 "1.5k" V 7900 3750 50  0000 C CNN
F 2 "Resistor_SMD:R_0805_2012Metric" V 7830 3750 50  0001 C CNN
F 3 "" H 7900 3750 50  0000 C CNN
	1    7900 3750
	0    1    1    0   
$EndComp
Wire Wire Line
	4000 4850 8050 4850
Connection ~ 4000 3950
Text Notes 8150 3550 0    60   ~ 0
Charging 90% complete
Text Notes 8150 3750 0    60   ~ 0
Battery charging
Wire Wire Line
	4850 2950 4850 3350
Wire Wire Line
	4850 2750 5100 2750
Wire Wire Line
	4000 2750 4200 2750
Wire Wire Line
	4000 3150 4000 3950
Wire Wire Line
	6850 2950 6850 3150
Wire Wire Line
	4000 3950 4000 4850
Wire Wire Line
	4500 2750 4700 2750
Wire Wire Line
	4000 3150 4300 3150
Wire Wire Line
	2800 2750 3300 2750
Wire Wire Line
	4000 3950 4550 3950
Wire Wire Line
	8050 3550 8050 3750
Wire Wire Line
	6850 2750 7350 2750
$Comp
L power:GND #PWR0125
U 1 1 5E80F65D
P 6600 3350
AR Path="/5E4D81A8/5E4DE9D8/5E80F65D" Ref="#PWR0125"  Part="1" 
AR Path="/5E4D81A8/5E4DE9C5/5E80F65D" Ref="#PWR0109"  Part="1" 
F 0 "#PWR0125" H 6600 3100 50  0001 C CNN
F 1 "GND" H 6605 3177 50  0000 C CNN
F 2 "" H 6600 3350 50  0001 C CNN
F 3 "" H 6600 3350 50  0001 C CNN
	1    6600 3350
	1    0    0    -1  
$EndComp
$Comp
L power:GND #PWR0121
U 1 1 5E80FD2F
P 3700 3050
AR Path="/5E4D81A8/5E4DE9D8/5E80FD2F" Ref="#PWR0121"  Part="1" 
AR Path="/5E4D81A8/5E4DE9C5/5E80FD2F" Ref="#PWR0105"  Part="1" 
F 0 "#PWR0121" H 3700 2800 50  0001 C CNN
F 1 "GND" H 3705 2877 50  0000 C CNN
F 2 "" H 3700 3050 50  0001 C CNN
F 3 "" H 3700 3050 50  0001 C CNN
	1    3700 3050
	1    0    0    -1  
$EndComp
$Comp
L power:GND #PWR0128
U 1 1 5E810459
P 7350 3050
AR Path="/5E4D81A8/5E4DE9D8/5E810459" Ref="#PWR0128"  Part="1" 
AR Path="/5E4D81A8/5E4DE9C5/5E810459" Ref="#PWR0112"  Part="1" 
F 0 "#PWR0128" H 7350 2800 50  0001 C CNN
F 1 "GND" H 7355 2877 50  0000 C CNN
F 2 "" H 7350 3050 50  0001 C CNN
F 3 "" H 7350 3050 50  0001 C CNN
	1    7350 3050
	1    0    0    -1  
$EndComp
$Comp
L power:GND #PWR0124
U 1 1 5E810B1F
P 5100 4350
AR Path="/5E4D81A8/5E4DE9D8/5E810B1F" Ref="#PWR0124"  Part="1" 
AR Path="/5E4D81A8/5E4DE9C5/5E810B1F" Ref="#PWR0108"  Part="1" 
F 0 "#PWR0124" H 5100 4100 50  0001 C CNN
F 1 "GND" H 5105 4177 50  0000 C CNN
F 2 "" H 5100 4350 50  0001 C CNN
F 3 "" H 5100 4350 50  0001 C CNN
	1    5100 4350
	1    0    0    -1  
$EndComp
$Comp
L Device:R R?
U 1 1 59824C0C
P 4300 3600
AR Path="/59811E48/59824C0C" Ref="R?"  Part="1" 
AR Path="/598129F4/59824C0C" Ref="R?"  Part="1" 
AR Path="/5E4D81A8/5E4DE9C5/59824C0C" Ref="R51"  Part="1" 
AR Path="/5E4D81A8/5E4DE9D8/59824C0C" Ref="R61"  Part="1" 
F 0 "R61" V 4380 3600 50  0000 C CNN
F 1 "110k" V 4300 3600 50  0000 C CNN
F 2 "Resistor_SMD:R_0805_2012Metric" V 4230 3600 50  0001 C CNN
F 3 "" H 4300 3600 50  0000 C CNN
	1    4300 3600
	1    0    0    -1  
$EndComp
$Comp
L power:GND #PWR0123
U 1 1 5E811A29
P 4550 4550
AR Path="/5E4D81A8/5E4DE9D8/5E811A29" Ref="#PWR0123"  Part="1" 
AR Path="/5E4D81A8/5E4DE9C5/5E811A29" Ref="#PWR0107"  Part="1" 
F 0 "#PWR0123" H 4550 4300 50  0001 C CNN
F 1 "GND" H 4555 4377 50  0000 C CNN
F 2 "" H 4550 4550 50  0001 C CNN
F 3 "" H 4550 4550 50  0001 C CNN
	1    4550 4550
	1    0    0    -1  
$EndComp
$Comp
L power:GND #PWR0126
U 1 1 5E811E1F
P 6850 4450
AR Path="/5E4D81A8/5E4DE9D8/5E811E1F" Ref="#PWR0126"  Part="1" 
AR Path="/5E4D81A8/5E4DE9C5/5E811E1F" Ref="#PWR0110"  Part="1" 
F 0 "#PWR0126" H 6850 4200 50  0001 C CNN
F 1 "GND" H 6855 4277 50  0000 C CNN
F 2 "" H 6850 4450 50  0001 C CNN
F 3 "" H 6850 4450 50  0001 C CNN
	1    6850 4450
	1    0    0    -1  
$EndComp
$Comp
L power:GND #PWR0127
U 1 1 5E812089
P 7200 4450
AR Path="/5E4D81A8/5E4DE9D8/5E812089" Ref="#PWR0127"  Part="1" 
AR Path="/5E4D81A8/5E4DE9C5/5E812089" Ref="#PWR0111"  Part="1" 
F 0 "#PWR0127" H 7200 4200 50  0001 C CNN
F 1 "GND" H 7205 4277 50  0000 C CNN
F 2 "" H 7200 4450 50  0001 C CNN
F 3 "" H 7200 4450 50  0001 C CNN
	1    7200 4450
	1    0    0    -1  
$EndComp
$Comp
L power:GND #PWR0122
U 1 1 5E81246F
P 4300 3750
AR Path="/5E4D81A8/5E4DE9D8/5E81246F" Ref="#PWR0122"  Part="1" 
AR Path="/5E4D81A8/5E4DE9C5/5E81246F" Ref="#PWR0106"  Part="1" 
F 0 "#PWR0122" H 4300 3500 50  0001 C CNN
F 1 "GND" H 4305 3577 50  0000 C CNN
F 2 "" H 4300 3750 50  0001 C CNN
F 3 "" H 4300 3750 50  0001 C CNN
	1    4300 3750
	1    0    0    -1  
$EndComp
Wire Wire Line
	6600 3550 7400 3550
Wire Wire Line
	6600 3750 7400 3750
Wire Wire Line
	7700 3550 7750 3550
Wire Wire Line
	7700 3750 7750 3750
Connection ~ 4550 3950
Wire Wire Line
	4550 3950 5100 3950
Connection ~ 4300 3150
Connection ~ 3700 2750
Wire Wire Line
	3700 2750 4000 2750
Connection ~ 7350 2750
Wire Wire Line
	7350 2750 8050 2750
Connection ~ 8050 3750
Wire Wire Line
	8050 3750 8050 4850
$Comp
L power:PWR_FLAG #FLG0105
U 1 1 5EA26714
P 4700 2750
AR Path="/5E4D81A8/5E4DE9C5/5EA26714" Ref="#FLG0105"  Part="1" 
AR Path="/5E4D81A8/5E4DE9D8/5EA26714" Ref="#FLG0106"  Part="1" 
F 0 "#FLG0106" H 4700 2825 50  0001 C CNN
F 1 "PWR_FLAG" H 4700 2923 50  0000 C CNN
F 2 "" H 4700 2750 50  0001 C CNN
F 3 "~" H 4700 2750 50  0001 C CNN
	1    4700 2750
	1    0    0    -1  
$EndComp
Connection ~ 4700 2750
Wire Wire Line
	4700 2750 4850 2750
$Comp
L power:PWR_FLAG #FLG0127
U 1 1 5EA28E68
P 3300 2750
AR Path="/5E4D81A8/5E4DE9C5/5EA28E68" Ref="#FLG0127"  Part="1" 
AR Path="/5E4D81A8/5E4DE9D8/5EA28E68" Ref="#FLG0128"  Part="1" 
F 0 "#FLG0128" H 3300 2825 50  0001 C CNN
F 1 "PWR_FLAG" H 3300 2923 50  0000 C CNN
F 2 "" H 3300 2750 50  0001 C CNN
F 3 "~" H 3300 2750 50  0001 C CNN
	1    3300 2750
	1    0    0    -1  
$EndComp
Connection ~ 3300 2750
Wire Wire Line
	3300 2750 3700 2750
Wire Wire Line
	4300 3150 5100 3150
$EndSCHEMATC
