EESchema Schematic File Version 4
EELAYER 30 0
EELAYER END
$Descr A4 11693 8268
encoding utf-8
Sheet 21 41
Title "Array Power Regulator"
Date ""
Rev ""
Comp "LibreCube"
Comment1 ""
Comment2 ""
Comment3 ""
Comment4 ""
$EndDescr
Text HLabel 3550 2950 0    60   Input ~ 0
IN
Text HLabel 8400 2750 2    60   Output ~ 0
OUT
$Comp
L mylib:TPS61032 U?
U 1 1 5E9ED923
P 5950 3450
AR Path="/5981037A/5E9ED923" Ref="U?"  Part="1" 
AR Path="/5981D081/5E9ED923" Ref="U?"  Part="1" 
AR Path="/5981E955/5E9ED923" Ref="U?"  Part="1" 
AR Path="/597FA003/5E9ED923" Ref="U?"  Part="1" 
AR Path="/5E4D81A8/5E4DE9B4/5E9ED923" Ref="U22"  Part="1" 
AR Path="/5E4D81A8/5E4DE9F4/5E9ED923" Ref="U23"  Part="1" 
AR Path="/5E4D81A8/5E4DEA02/5E9ED923" Ref="U26"  Part="1" 
AR Path="/5E4D81A8/5E4DEA07/5E9ED923" Ref="U33"  Part="1" 
F 0 "U23" H 5950 3700 50  0000 C CNN
F 1 "TPS61032" H 5700 2400 50  0000 C CNN
F 2 "Package_SO:TSSOP-16-1EP_4.4x5mm_P0.65mm" H 5950 3800 60  0001 C CNN
F 3 "" H 5950 3800 60  0000 C CNN
	1    5950 3450
	1    0    0    -1  
$EndComp
Wire Wire Line
	6700 3750 6850 3750
Wire Wire Line
	6850 3750 6850 3950
Wire Wire Line
	6700 3950 6850 3950
Connection ~ 6850 3950
Wire Wire Line
	6700 4150 6850 4150
Connection ~ 6850 4150
Wire Wire Line
	6850 4350 6700 4350
Connection ~ 6850 4350
Wire Wire Line
	5200 2550 5200 2750
Wire Wire Line
	5000 4350 5200 4350
Wire Wire Line
	5000 3350 5000 3550
Wire Wire Line
	5200 3550 5000 3550
Connection ~ 5000 4350
Wire Wire Line
	5200 3350 5000 3350
Connection ~ 5000 3550
Wire Wire Line
	5200 3150 5100 3150
Wire Wire Line
	5100 3150 5100 2950
Connection ~ 5100 2950
$Comp
L Device:C C?
U 1 1 5E9ED924
P 4400 3100
AR Path="/5981037A/5E9ED924" Ref="C?"  Part="1" 
AR Path="/5981D081/5E9ED924" Ref="C?"  Part="1" 
AR Path="/5981E955/5E9ED924" Ref="C?"  Part="1" 
AR Path="/597FA003/5E9ED924" Ref="C?"  Part="1" 
AR Path="/5E4D81A8/5E4DE9B4/5E9ED924" Ref="C29"  Part="1" 
AR Path="/5E4D81A8/5E4DE9F4/5E9ED924" Ref="C32"  Part="1" 
AR Path="/5E4D81A8/5E4DEA02/5E9ED924" Ref="C39"  Part="1" 
AR Path="/5E4D81A8/5E4DEA07/5E9ED924" Ref="C50"  Part="1" 
F 0 "C32" H 4425 3200 50  0000 L CNN
F 1 "10uF" H 4425 3000 50  0000 L CNN
F 2 "Capacitor_SMD:C_1206_3216Metric" H 4438 2950 50  0001 C CNN
F 3 "" H 4400 3100 50  0000 C CNN
	1    4400 3100
	1    0    0    -1  
$EndComp
NoConn ~ 6700 3150
NoConn ~ 6700 3350
NoConn ~ 6700 3550
Wire Wire Line
	6700 2550 6900 2550
Wire Wire Line
	6900 2550 6900 2750
Wire Wire Line
	6900 2950 6700 2950
Wire Wire Line
	6700 2750 6900 2750
Connection ~ 6900 2750
$Comp
L Device:C C?
U 1 1 5E9ED925
P 7200 2900
AR Path="/5981037A/5E9ED925" Ref="C?"  Part="1" 
AR Path="/5981D081/5E9ED925" Ref="C?"  Part="1" 
AR Path="/5981E955/5E9ED925" Ref="C?"  Part="1" 
AR Path="/597FA003/5E9ED925" Ref="C?"  Part="1" 
AR Path="/5E4D81A8/5E4DE9B4/5E9ED925" Ref="C30"  Part="1" 
AR Path="/5E4D81A8/5E4DE9F4/5E9ED925" Ref="C33"  Part="1" 
AR Path="/5E4D81A8/5E4DEA02/5E9ED925" Ref="C40"  Part="1" 
AR Path="/5E4D81A8/5E4DEA07/5E9ED925" Ref="C51"  Part="1" 
F 0 "C33" H 7225 3000 50  0000 L CNN
F 1 "2.2uF" H 7225 2800 50  0000 L CNN
F 2 "Capacitor_SMD:C_0805_2012Metric" H 7238 2750 50  0001 C CNN
F 3 "" H 7200 2900 50  0000 C CNN
	1    7200 2900
	1    0    0    -1  
$EndComp
$Comp
L Device:L L?
U 1 1 598E0758
P 4700 2700
AR Path="/5981037A/598E0758" Ref="L?"  Part="1" 
AR Path="/5981D081/598E0758" Ref="L?"  Part="1" 
AR Path="/5981E955/598E0758" Ref="L?"  Part="1" 
AR Path="/597FA003/598E0758" Ref="L?"  Part="1" 
AR Path="/5E4D81A8/5E4DE9B4/598E0758" Ref="L1"  Part="1" 
AR Path="/5E4D81A8/5E4DE9F4/598E0758" Ref="L2"  Part="1" 
AR Path="/5E4D81A8/5E4DEA02/598E0758" Ref="L3"  Part="1" 
AR Path="/5E4D81A8/5E4DEA07/598E0758" Ref="L4"  Part="1" 
F 0 "L2" V 4650 2700 50  0000 C CNN
F 1 "6.8uH" V 4775 2700 50  0000 C CNN
F 2 "Inductor_SMD:L_7.3x7.3_H4.5" H 4700 2700 50  0001 C CNN
F 3 "" H 4700 2700 50  0000 C CNN
	1    4700 2700
	1    0    0    -1  
$EndComp
Wire Wire Line
	4700 2850 4700 2950
Connection ~ 4700 2950
Wire Wire Line
	6850 3950 6850 4150
Wire Wire Line
	6850 4150 6850 4350
Wire Wire Line
	6850 4350 6850 4450
Wire Wire Line
	5000 4350 5000 4450
Wire Wire Line
	5000 3550 5000 4350
Wire Wire Line
	5100 2950 5200 2950
Wire Wire Line
	6900 2750 6900 2950
Wire Wire Line
	4700 2950 5100 2950
Wire Wire Line
	4700 2550 4950 2550
Wire Wire Line
	3550 2950 3850 2950
Wire Wire Line
	6900 2750 7200 2750
$Comp
L power:GND #PWR0120
U 1 1 5E80652D
P 7400 3050
AR Path="/5E4D81A8/5E4DEA07/5E80652D" Ref="#PWR0120"  Part="1" 
AR Path="/5E4D81A8/5E4DE9B4/5E80652D" Ref="#PWR073"  Part="1" 
AR Path="/5E4D81A8/5E4DE9F4/5E80652D" Ref="#PWR077"  Part="1" 
AR Path="/5E4D81A8/5E4DEA02/5E80652D" Ref="#PWR090"  Part="1" 
F 0 "#PWR077" H 7400 2800 50  0001 C CNN
F 1 "GND" H 7405 2877 50  0000 C CNN
F 2 "" H 7400 3050 50  0001 C CNN
F 3 "" H 7400 3050 50  0001 C CNN
	1    7400 3050
	1    0    0    -1  
$EndComp
Connection ~ 7400 3050
Wire Wire Line
	7400 3050 7200 3050
$Comp
L power:GND #PWR0119
U 1 1 5E9ED92A
P 6850 4450
AR Path="/5E4D81A8/5E4DEA07/5E9ED92A" Ref="#PWR0119"  Part="1" 
AR Path="/5E4D81A8/5E4DE9B4/5E9ED92A" Ref="#PWR072"  Part="1" 
AR Path="/5E4D81A8/5E4DE9F4/5E9ED92A" Ref="#PWR076"  Part="1" 
AR Path="/5E4D81A8/5E4DEA02/5E9ED92A" Ref="#PWR089"  Part="1" 
F 0 "#PWR076" H 6850 4200 50  0001 C CNN
F 1 "GND" H 6855 4277 50  0000 C CNN
F 2 "" H 6850 4450 50  0001 C CNN
F 3 "" H 6850 4450 50  0001 C CNN
	1    6850 4450
	1    0    0    -1  
$EndComp
$Comp
L power:GND #PWR0118
U 1 1 5E9ED92B
P 5000 4450
AR Path="/5E4D81A8/5E4DEA07/5E9ED92B" Ref="#PWR0118"  Part="1" 
AR Path="/5E4D81A8/5E4DE9B4/5E9ED92B" Ref="#PWR071"  Part="1" 
AR Path="/5E4D81A8/5E4DE9F4/5E9ED92B" Ref="#PWR075"  Part="1" 
AR Path="/5E4D81A8/5E4DEA02/5E9ED92B" Ref="#PWR088"  Part="1" 
F 0 "#PWR075" H 5000 4200 50  0001 C CNN
F 1 "GND" H 5005 4277 50  0000 C CNN
F 2 "" H 5000 4450 50  0001 C CNN
F 3 "" H 5000 4450 50  0001 C CNN
	1    5000 4450
	1    0    0    -1  
$EndComp
$Comp
L power:GND #PWR0117
U 1 1 5E9ED92C
P 4400 3250
AR Path="/5E4D81A8/5E4DEA07/5E9ED92C" Ref="#PWR0117"  Part="1" 
AR Path="/5E4D81A8/5E4DE9B4/5E9ED92C" Ref="#PWR070"  Part="1" 
AR Path="/5E4D81A8/5E4DE9F4/5E9ED92C" Ref="#PWR074"  Part="1" 
AR Path="/5E4D81A8/5E4DEA02/5E9ED92C" Ref="#PWR087"  Part="1" 
F 0 "#PWR074" H 4400 3000 50  0001 C CNN
F 1 "GND" H 4405 3077 50  0000 C CNN
F 2 "" H 4400 3250 50  0001 C CNN
F 3 "" H 4400 3250 50  0001 C CNN
	1    4400 3250
	1    0    0    -1  
$EndComp
Connection ~ 4400 2950
Wire Wire Line
	4400 2950 4700 2950
Connection ~ 7200 2750
Connection ~ 5200 2550
$Comp
L power:PWR_FLAG #FLG0101
U 1 1 5EA259E2
P 3850 2950
AR Path="/5E4D81A8/5E4DE9B4/5EA259E2" Ref="#FLG0101"  Part="1" 
AR Path="/5E4D81A8/5E4DE9F4/5EA259E2" Ref="#FLG0102"  Part="1" 
AR Path="/5E4D81A8/5E4DEA02/5EA259E2" Ref="#FLG0103"  Part="1" 
AR Path="/5E4D81A8/5E4DEA07/5EA259E2" Ref="#FLG0104"  Part="1" 
F 0 "#FLG0102" H 3850 3025 50  0001 C CNN
F 1 "PWR_FLAG" H 3850 3123 50  0000 C CNN
F 2 "" H 3850 2950 50  0001 C CNN
F 3 "~" H 3850 2950 50  0001 C CNN
	1    3850 2950
	1    0    0    -1  
$EndComp
Connection ~ 3850 2950
Wire Wire Line
	3850 2950 4400 2950
$Comp
L power:PWR_FLAG #FLG0123
U 1 1 5EA27CAF
P 4950 2550
AR Path="/5E4D81A8/5E4DE9B4/5EA27CAF" Ref="#FLG0123"  Part="1" 
AR Path="/5E4D81A8/5E4DE9F4/5EA27CAF" Ref="#FLG0124"  Part="1" 
AR Path="/5E4D81A8/5E4DEA02/5EA27CAF" Ref="#FLG0125"  Part="1" 
AR Path="/5E4D81A8/5E4DEA07/5EA27CAF" Ref="#FLG0126"  Part="1" 
F 0 "#FLG0124" H 4950 2625 50  0001 C CNN
F 1 "PWR_FLAG" H 4950 2723 50  0000 C CNN
F 2 "" H 4950 2550 50  0001 C CNN
F 3 "~" H 4950 2550 50  0001 C CNN
	1    4950 2550
	1    0    0    -1  
$EndComp
Connection ~ 4950 2550
Wire Wire Line
	4950 2550 5200 2550
Wire Wire Line
	7200 2750 7550 2750
Wire Wire Line
	7400 3050 7550 3050
$Comp
L Device:C C?
U 1 1 5E96C015
P 7550 2900
AR Path="/5981037A/5E96C015" Ref="C?"  Part="1" 
AR Path="/5981D081/5E96C015" Ref="C?"  Part="1" 
AR Path="/5981E955/5E96C015" Ref="C?"  Part="1" 
AR Path="/597FA003/5E96C015" Ref="C?"  Part="1" 
AR Path="/5E4D81A8/5E4DE9B4/5E96C015" Ref="C19"  Part="1" 
AR Path="/5E4D81A8/5E4DE9F4/5E96C015" Ref="C21"  Part="1" 
AR Path="/5E4D81A8/5E4DEA02/5E96C015" Ref="C23"  Part="1" 
AR Path="/5E4D81A8/5E4DEA07/5E96C015" Ref="C25"  Part="1" 
F 0 "C21" H 7575 3000 50  0000 L CNN
F 1 "220uF" H 7575 2800 50  0000 L CNN
F 2 "Capacitor_Tantalum_SMD:CP_EIA-7343-31_Kemet-D" H 7588 2750 50  0001 C CNN
F 3 "" H 7550 2900 50  0000 C CNN
	1    7550 2900
	1    0    0    -1  
$EndComp
Connection ~ 7550 2750
Wire Wire Line
	7550 2750 8400 2750
$EndSCHEMATC
