EESchema Schematic File Version 4
EELAYER 30 0
EELAYER END
$Descr A4 11693 8268
encoding utf-8
Sheet 18 41
Title ""
Date ""
Rev ""
Comp "LibreCube"
Comment1 ""
Comment2 ""
Comment3 ""
Comment4 ""
$EndDescr
Text HLabel 3050 3200 0    60   Input ~ 0
IN
Text HLabel 5600 3250 2    60   Input ~ 0
OUT
Text HLabel 3050 3950 0    60   Input ~ 0
ON
$Sheet
S 4100 3100 900  400 
U 59842ECB
F0 "LCL switch A" 60
F1 "power switch.sch" 60
F2 "OUT" O R 5000 3250 60 
F3 "IN" I L 4100 3200 60 
F4 "EN" I L 4100 3300 60 
F5 "/OC" O R 5000 3400 60 
$EndSheet
$Sheet
S 4100 3750 900  400 
U 59842FE8
F0 "LCL switch 2" 60
F1 "power switch.sch" 60
F2 "OUT" O R 5000 3900 60 
F3 "IN" I L 4100 3850 60 
F4 "EN" I L 4100 3950 60 
F5 "/OC" O R 5000 4050 60 
$EndSheet
Wire Wire Line
	3050 3200 3900 3200
Wire Wire Line
	4100 3850 3900 3850
Wire Wire Line
	3900 3850 3900 3200
Connection ~ 3900 3200
Wire Wire Line
	5000 3900 5300 3900
Wire Wire Line
	5300 3900 5300 3250
Wire Wire Line
	5000 3250 5300 3250
Connection ~ 5300 3250
Wire Wire Line
	3050 3950 3500 3950
Wire Wire Line
	3800 3950 3800 3300
Wire Wire Line
	3800 3300 4100 3300
Connection ~ 3800 3950
Wire Wire Line
	3900 3200 4100 3200
Wire Wire Line
	5300 3250 5600 3250
Wire Wire Line
	3800 3950 4100 3950
Connection ~ 3500 3950
Wire Wire Line
	3500 3950 3800 3950
$Comp
L power:GND #PWR07
U 1 1 5E94EBA1
P 3500 4250
AR Path="/5E452A4F/5E45616A/5E94EBA1" Ref="#PWR07"  Part="1" 
AR Path="/5E452A4F/5E456165/5E94EBA1" Ref="#PWR08"  Part="1" 
AR Path="/5E452A4F/5E456160/5E94EBA1" Ref="#PWR09"  Part="1" 
AR Path="/5E452A4F/5E45615B/5E94EBA1" Ref="#PWR0150"  Part="1" 
AR Path="/5E452A4F/5E456156/5E94EBA1" Ref="#PWR0151"  Part="1" 
F 0 "#PWR08" H 3500 4000 50  0001 C CNN
F 1 "GND" H 3505 4077 50  0000 C CNN
F 2 "" H 3500 4250 50  0001 C CNN
F 3 "" H 3500 4250 50  0001 C CNN
	1    3500 4250
	1    0    0    -1  
$EndComp
$Comp
L Device:R R?
U 1 1 5E94E527
P 3500 4100
AR Path="/5981D798/5983DD90/5E94E527" Ref="R?"  Part="1" 
AR Path="/5981D798/5983E4FD/5E94E527" Ref="R?"  Part="1" 
AR Path="/59824968/5983F4B3/5E94E527" Ref="R?"  Part="1" 
AR Path="/59824968/5983F7D4/5E94E527" Ref="R?"  Part="1" 
AR Path="/5982788E/5983F4B3/5E94E527" Ref="R?"  Part="1" 
AR Path="/5982788E/5983F7D4/5E94E527" Ref="R?"  Part="1" 
AR Path="/59829749/59842ECB/5E94E527" Ref="R?"  Part="1" 
AR Path="/59829749/59842FE8/5E94E527" Ref="R?"  Part="1" 
AR Path="/59841F95/59842ECB/5E94E527" Ref="R?"  Part="1" 
AR Path="/59841F95/59842FE8/5E94E527" Ref="R?"  Part="1" 
AR Path="/59845D4E/59842ECB/5E94E527" Ref="R?"  Part="1" 
AR Path="/59845D4E/59842FE8/5E94E527" Ref="R?"  Part="1" 
AR Path="/59845ED6/59842ECB/5E94E527" Ref="R?"  Part="1" 
AR Path="/59845ED6/59842FE8/5E94E527" Ref="R?"  Part="1" 
AR Path="/59846013/59842ECB/5E94E527" Ref="R?"  Part="1" 
AR Path="/59846013/59842FE8/5E94E527" Ref="R?"  Part="1" 
AR Path="/5E452A4F/5E4560E3/5983F4B3/5E94E527" Ref="R?"  Part="1" 
AR Path="/5E452A4F/5E4560E3/5983F7D4/5E94E527" Ref="R?"  Part="1" 
AR Path="/5E452A4F/5E456156/59842ECB/5E94E527" Ref="R?"  Part="1" 
AR Path="/5E452A4F/5E456156/59842FE8/5E94E527" Ref="R?"  Part="1" 
AR Path="/5E452A4F/5E45615B/59842ECB/5E94E527" Ref="R?"  Part="1" 
AR Path="/5E452A4F/5E45615B/59842FE8/5E94E527" Ref="R?"  Part="1" 
AR Path="/5E452A4F/5E456160/59842ECB/5E94E527" Ref="R?"  Part="1" 
AR Path="/5E452A4F/5E456160/59842FE8/5E94E527" Ref="R?"  Part="1" 
AR Path="/5E452A4F/5E456165/59842ECB/5E94E527" Ref="R?"  Part="1" 
AR Path="/5E452A4F/5E456165/59842FE8/5E94E527" Ref="R?"  Part="1" 
AR Path="/5E452A4F/5E45616A/59842ECB/5E94E527" Ref="R?"  Part="1" 
AR Path="/5E452A4F/5E45616A/59842FE8/5E94E527" Ref="R?"  Part="1" 
AR Path="/5E452A4F/5E45616E/5983F4B3/5E94E527" Ref="R?"  Part="1" 
AR Path="/5E452A4F/5E45616E/5983F7D4/5E94E527" Ref="R?"  Part="1" 
AR Path="/5E4D81A8/5E4DE9FE/5983DD90/5E94E527" Ref="R?"  Part="1" 
AR Path="/5E4D81A8/5E4DE9FE/5983E4FD/5E94E527" Ref="R?"  Part="1" 
AR Path="/5E452A4F/5E45616A/5E94E527" Ref="R1"  Part="1" 
AR Path="/5E452A4F/5E456165/5E94E527" Ref="R3"  Part="1" 
AR Path="/5E452A4F/5E456160/5E94E527" Ref="R5"  Part="1" 
AR Path="/5E452A4F/5E45615B/5E94E527" Ref="R7"  Part="1" 
AR Path="/5E452A4F/5E456156/5E94E527" Ref="R9"  Part="1" 
F 0 "R3" V 3580 4100 50  0000 C CNN
F 1 "10k" V 3500 4100 50  0000 C CNN
F 2 "Resistor_SMD:R_0805_2012Metric" V 3430 4100 50  0001 C CNN
F 3 "" H 3500 4100 50  0000 C CNN
	1    3500 4100
	1    0    0    -1  
$EndComp
$EndSCHEMATC
