EESchema Schematic File Version 4
EELAYER 30 0
EELAYER END
$Descr A4 11693 8268
encoding utf-8
Sheet 41 41
Title ""
Date ""
Rev ""
Comp ""
Comment1 ""
Comment2 ""
Comment3 ""
Comment4 ""
$EndDescr
Wire Wire Line
	5500 3500 5500 3400
Wire Wire Line
	5500 3000 6000 3000
Wire Wire Line
	5500 3100 5500 3000
Wire Wire Line
	5000 3000 5000 3100
Connection ~ 5500 3000
Wire Wire Line
	5000 3000 5500 3000
Wire Wire Line
	5000 3400 5000 3500
Connection ~ 5000 3000
Wire Wire Line
	5000 2900 5000 3000
Wire Wire Line
	5000 2500 5000 2600
Text HLabel 6000 3000 2    50   Output ~ 0
MEAS
Text HLabel 5000 2500 1    50   Input ~ 0
IN
$Comp
L power:GND #PWR098
U 1 1 5E0E87BB
P 5500 3500
F 0 "#PWR098" H 5500 3250 50  0001 C CNN
F 1 "GND" H 5505 3327 50  0000 C CNN
F 2 "" H 5500 3500 50  0001 C CNN
F 3 "" H 5500 3500 50  0001 C CNN
	1    5500 3500
	1    0    0    -1  
$EndComp
$Comp
L power:GND #PWR097
U 1 1 5E0E87C1
P 5000 3500
F 0 "#PWR097" H 5000 3250 50  0001 C CNN
F 1 "GND" H 5005 3327 50  0000 C CNN
F 2 "" H 5000 3500 50  0001 C CNN
F 3 "" H 5000 3500 50  0001 C CNN
	1    5000 3500
	1    0    0    -1  
$EndComp
$Comp
L Device:C C?
U 1 1 5E0E87C7
P 5500 3250
AR Path="/5E3FB577/5E0E87C7" Ref="C?"  Part="1" 
AR Path="/5E0E3CCC/5E0E87C7" Ref="C?"  Part="1" 
AR Path="/5E4D81A8/5E4DEAF7/5E0E87C7" Ref="C42"  Part="1" 
F 0 "C42" H 5615 3296 50  0000 L CNN
F 1 "28n" H 5615 3205 50  0000 L CNN
F 2 "Capacitor_SMD:C_0805_2012Metric" H 5538 3100 50  0001 C CNN
F 3 "~" H 5500 3250 50  0001 C CNN
	1    5500 3250
	1    0    0    -1  
$EndComp
$Comp
L Device:R R?
U 1 1 5E0E87CD
P 5000 3250
AR Path="/5E3FB577/5E0E87CD" Ref="R?"  Part="1" 
AR Path="/5E0E3CCC/5E0E87CD" Ref="R?"  Part="1" 
AR Path="/5E4D81A8/5E4DEAF7/5E0E87CD" Ref="R44"  Part="1" 
F 0 "R44" H 5070 3296 50  0000 L CNN
F 1 "130k" H 5070 3205 50  0000 L CNN
F 2 "Resistor_SMD:R_0805_2012Metric" V 4930 3250 50  0001 C CNN
F 3 "~" H 5000 3250 50  0001 C CNN
	1    5000 3250
	1    0    0    -1  
$EndComp
$Comp
L Device:R R43
U 1 1 5E0E87D3
P 5000 2750
F 0 "R43" H 5070 2796 50  0000 L CNN
F 1 "100k" H 5070 2705 50  0000 L CNN
F 2 "Resistor_SMD:R_0805_2012Metric" V 4930 2750 50  0001 C CNN
F 3 "~" H 5000 2750 50  0001 C CNN
	1    5000 2750
	1    0    0    -1  
$EndComp
$EndSCHEMATC
