EESchema Schematic File Version 4
EELAYER 30 0
EELAYER END
$Descr A4 11693 8268
encoding utf-8
Sheet 35 41
Title ""
Date ""
Rev ""
Comp ""
Comment1 ""
Comment2 ""
Comment3 ""
Comment4 ""
$EndDescr
$Comp
L Amplifier_Current:INA195 U?
U 1 1 5E9965DB
P 5100 2300
AR Path="/5E148A19/5E9965DB" Ref="U?"  Part="1" 
AR Path="/5E1BE27D/5E9965DB" Ref="U?"  Part="1" 
AR Path="/5E243EC1/5E9965DB" Ref="U?"  Part="1" 
AR Path="/5E24AB9E/5E9965DB" Ref="U?"  Part="1" 
AR Path="/5E250FFD/5E9965DB" Ref="U?"  Part="1" 
AR Path="/5E257468/5E9965DB" Ref="U?"  Part="1" 
AR Path="/5E25DBAB/5E9965DB" Ref="U?"  Part="1" 
AR Path="/5E26409A/5E9965DB" Ref="U?"  Part="1" 
AR Path="/5E26A541/5E9965DB" Ref="U?"  Part="1" 
AR Path="/5E2707BC/5E9965DB" Ref="U?"  Part="1" 
AR Path="/5E2769FF/5E9965DB" Ref="U?"  Part="1" 
AR Path="/5E27CC26/5E9965DB" Ref="U?"  Part="1" 
AR Path="/5E452A4F/5E456114/5E9965DB" Ref="U21"  Part="1" 
AR Path="/5E452A4F/5E456119/5E9965DB" Ref="U20"  Part="1" 
AR Path="/5E452A4F/5E45611E/5E9965DB" Ref="U19"  Part="1" 
AR Path="/5E452A4F/5E456123/5E9965DB" Ref="U18"  Part="1" 
AR Path="/5E452A4F/5E456128/5E9965DB" Ref="U17"  Part="1" 
AR Path="/5E452A4F/5E45612D/5E9965DB" Ref="U16"  Part="1" 
AR Path="/5E452A4F/5E456132/5E9965DB" Ref="U15"  Part="1" 
AR Path="/5E4D81A8/5E4DEAA1/5E9965DB" Ref="U27"  Part="1" 
AR Path="/5E4D81A8/5E4DEAC4/5E9965DB" Ref="U32"  Part="1" 
AR Path="/5E4D81A8/5E4DEAC9/5E9965DB" Ref="U28"  Part="1" 
AR Path="/5E4D81A8/5E4DEACE/5E9965DB" Ref="U29"  Part="1" 
AR Path="/5E4D81A8/5E4DEB20/5E9965DB" Ref="U30"  Part="1" 
F 0 "U32" H 5444 2346 50  0000 L CNN
F 1 "INA195" H 5444 2255 50  0000 L CNN
F 2 "Package_TO_SOT_SMD:SOT-23-5" H 5100 2300 50  0001 C CNN
F 3 "http://www.ti.com/lit/ds/symlink/ina193.pdf" H 5100 2300 50  0001 C CNN
	1    5100 2300
	1    0    0    -1  
$EndComp
$Comp
L Device:R R?
U 1 1 5E9965DC
P 4450 2950
AR Path="/5E148A19/5E9965DC" Ref="R?"  Part="1" 
AR Path="/5E1BE27D/5E9965DC" Ref="R?"  Part="1" 
AR Path="/5E243EC1/5E9965DC" Ref="R?"  Part="1" 
AR Path="/5E24AB9E/5E9965DC" Ref="R?"  Part="1" 
AR Path="/5E250FFD/5E9965DC" Ref="R?"  Part="1" 
AR Path="/5E257468/5E9965DC" Ref="R?"  Part="1" 
AR Path="/5E25DBAB/5E9965DC" Ref="R?"  Part="1" 
AR Path="/5E26409A/5E9965DC" Ref="R?"  Part="1" 
AR Path="/5E26A541/5E9965DC" Ref="R?"  Part="1" 
AR Path="/5E2707BC/5E9965DC" Ref="R?"  Part="1" 
AR Path="/5E2769FF/5E9965DC" Ref="R?"  Part="1" 
AR Path="/5E27CC26/5E9965DC" Ref="R?"  Part="1" 
AR Path="/5E452A4F/5E456114/5E9965DC" Ref="R35"  Part="1" 
AR Path="/5E452A4F/5E456119/5E9965DC" Ref="R34"  Part="1" 
AR Path="/5E452A4F/5E45611E/5E9965DC" Ref="R33"  Part="1" 
AR Path="/5E452A4F/5E456123/5E9965DC" Ref="R32"  Part="1" 
AR Path="/5E452A4F/5E456128/5E9965DC" Ref="R31"  Part="1" 
AR Path="/5E452A4F/5E45612D/5E9965DC" Ref="R30"  Part="1" 
AR Path="/5E452A4F/5E456132/5E9965DC" Ref="R29"  Part="1" 
AR Path="/5E4D81A8/5E4DEAA1/5E9965DC" Ref="R40"  Part="1" 
AR Path="/5E4D81A8/5E4DEAC4/5E9965DC" Ref="R59"  Part="1" 
AR Path="/5E4D81A8/5E4DEAC9/5E9965DC" Ref="R41"  Part="1" 
AR Path="/5E4D81A8/5E4DEACE/5E9965DC" Ref="R42"  Part="1" 
AR Path="/5E4D81A8/5E4DEB20/5E9965DC" Ref="R49"  Part="1" 
F 0 "R59" V 4657 2950 50  0000 C CNN
F 1 "33m" V 4566 2950 50  0000 C CNN
F 2 "Resistor_SMD:R_0805_2012Metric" V 4380 2950 50  0001 C CNN
F 3 "~" H 4450 2950 50  0001 C CNN
	1    4450 2950
	0    -1   -1   0   
$EndComp
$Comp
L power:GND #PWR?
U 1 1 5E9965DD
P 5000 2600
AR Path="/5E148A19/5E9965DD" Ref="#PWR?"  Part="1" 
AR Path="/5E1BE27D/5E9965DD" Ref="#PWR?"  Part="1" 
AR Path="/5E243EC1/5E9965DD" Ref="#PWR?"  Part="1" 
AR Path="/5E24AB9E/5E9965DD" Ref="#PWR?"  Part="1" 
AR Path="/5E250FFD/5E9965DD" Ref="#PWR?"  Part="1" 
AR Path="/5E257468/5E9965DD" Ref="#PWR?"  Part="1" 
AR Path="/5E25DBAB/5E9965DD" Ref="#PWR?"  Part="1" 
AR Path="/5E26409A/5E9965DD" Ref="#PWR?"  Part="1" 
AR Path="/5E26A541/5E9965DD" Ref="#PWR?"  Part="1" 
AR Path="/5E2707BC/5E9965DD" Ref="#PWR?"  Part="1" 
AR Path="/5E2769FF/5E9965DD" Ref="#PWR?"  Part="1" 
AR Path="/5E27CC26/5E9965DD" Ref="#PWR?"  Part="1" 
AR Path="/5E452A4F/5E456114/5E9965DD" Ref="#PWR066"  Part="1" 
AR Path="/5E452A4F/5E456119/5E9965DD" Ref="#PWR064"  Part="1" 
AR Path="/5E452A4F/5E45611E/5E9965DD" Ref="#PWR062"  Part="1" 
AR Path="/5E452A4F/5E456123/5E9965DD" Ref="#PWR060"  Part="1" 
AR Path="/5E452A4F/5E456128/5E9965DD" Ref="#PWR058"  Part="1" 
AR Path="/5E452A4F/5E45612D/5E9965DD" Ref="#PWR056"  Part="1" 
AR Path="/5E452A4F/5E456132/5E9965DD" Ref="#PWR054"  Part="1" 
AR Path="/5E4D81A8/5E4DEAA1/5E9965DD" Ref="#PWR092"  Part="1" 
AR Path="/5E4D81A8/5E4DEAC4/5E9965DD" Ref="#PWR0116"  Part="1" 
AR Path="/5E4D81A8/5E4DEAC9/5E9965DD" Ref="#PWR094"  Part="1" 
AR Path="/5E4D81A8/5E4DEACE/5E9965DD" Ref="#PWR096"  Part="1" 
AR Path="/5E4D81A8/5E4DEB20/5E9965DD" Ref="#PWR0104"  Part="1" 
F 0 "#PWR0116" H 5000 2350 50  0001 C CNN
F 1 "GND" H 5005 2427 50  0000 C CNN
F 2 "" H 5000 2600 50  0001 C CNN
F 3 "" H 5000 2600 50  0001 C CNN
	1    5000 2600
	1    0    0    -1  
$EndComp
Wire Wire Line
	4600 2950 4600 2400
Wire Wire Line
	4600 2400 4800 2400
Wire Wire Line
	4300 2950 4300 2200
Wire Wire Line
	4300 2200 4800 2200
Wire Wire Line
	3500 2950 4300 2950
Connection ~ 4300 2950
Wire Wire Line
	6000 2300 5400 2300
Wire Wire Line
	6000 2950 4600 2950
Connection ~ 4600 2950
Wire Wire Line
	5000 1750 5000 2000
$Comp
L power:VCC #PWR?
U 1 1 5E9965DE
P 5000 1750
AR Path="/5E148A19/5E9965DE" Ref="#PWR?"  Part="1" 
AR Path="/5E1BE27D/5E9965DE" Ref="#PWR?"  Part="1" 
AR Path="/5E243EC1/5E9965DE" Ref="#PWR?"  Part="1" 
AR Path="/5E24AB9E/5E9965DE" Ref="#PWR?"  Part="1" 
AR Path="/5E250FFD/5E9965DE" Ref="#PWR?"  Part="1" 
AR Path="/5E257468/5E9965DE" Ref="#PWR?"  Part="1" 
AR Path="/5E25DBAB/5E9965DE" Ref="#PWR?"  Part="1" 
AR Path="/5E26409A/5E9965DE" Ref="#PWR?"  Part="1" 
AR Path="/5E26A541/5E9965DE" Ref="#PWR?"  Part="1" 
AR Path="/5E2707BC/5E9965DE" Ref="#PWR?"  Part="1" 
AR Path="/5E2769FF/5E9965DE" Ref="#PWR?"  Part="1" 
AR Path="/5E27CC26/5E9965DE" Ref="#PWR?"  Part="1" 
AR Path="/5E452A4F/5E456114/5E9965DE" Ref="#PWR065"  Part="1" 
AR Path="/5E452A4F/5E456119/5E9965DE" Ref="#PWR063"  Part="1" 
AR Path="/5E452A4F/5E45611E/5E9965DE" Ref="#PWR061"  Part="1" 
AR Path="/5E452A4F/5E456123/5E9965DE" Ref="#PWR059"  Part="1" 
AR Path="/5E452A4F/5E456128/5E9965DE" Ref="#PWR057"  Part="1" 
AR Path="/5E452A4F/5E45612D/5E9965DE" Ref="#PWR055"  Part="1" 
AR Path="/5E452A4F/5E456132/5E9965DE" Ref="#PWR053"  Part="1" 
AR Path="/5E4D81A8/5E4DEAA1/5E9965DE" Ref="#PWR091"  Part="1" 
AR Path="/5E4D81A8/5E4DEAC4/5E9965DE" Ref="#PWR0115"  Part="1" 
AR Path="/5E4D81A8/5E4DEAC9/5E9965DE" Ref="#PWR093"  Part="1" 
AR Path="/5E4D81A8/5E4DEACE/5E9965DE" Ref="#PWR095"  Part="1" 
AR Path="/5E4D81A8/5E4DEB20/5E9965DE" Ref="#PWR0103"  Part="1" 
F 0 "#PWR0115" H 5000 1600 50  0001 C CNN
F 1 "VCC" H 5017 1923 50  0000 C CNN
F 2 "" H 5000 1750 50  0001 C CNN
F 3 "" H 5000 1750 50  0001 C CNN
	1    5000 1750
	1    0    0    -1  
$EndComp
Text HLabel 3500 2950 0    50   Input ~ 0
IN
Text HLabel 6000 2950 2    50   Output ~ 0
OUT
Text HLabel 6000 2300 2    50   Output ~ 0
MEAS
$EndSCHEMATC
