EESchema Schematic File Version 4
EELAYER 30 0
EELAYER END
$Descr A4 11693 8268
encoding utf-8
Sheet 34 41
Title ""
Date ""
Rev ""
Comp ""
Comment1 ""
Comment2 ""
Comment3 ""
Comment4 ""
$EndDescr
Wire Wire Line
	5550 3750 5550 3650
Wire Wire Line
	5550 3250 6050 3250
Wire Wire Line
	5550 3350 5550 3250
Wire Wire Line
	5050 3250 5050 3350
Connection ~ 5550 3250
Wire Wire Line
	5050 3250 5550 3250
Wire Wire Line
	5050 3650 5050 3750
Connection ~ 5050 3250
Wire Wire Line
	5050 3150 5050 3250
Wire Wire Line
	5050 2750 5050 2850
Text HLabel 6050 3250 2    50   Output ~ 0
MEAS
Text HLabel 5050 2750 1    50   Input ~ 0
IN
$Comp
L power:GND #PWR?
U 1 1 5E9EC4B8
P 5550 3750
AR Path="/5E3FB577/5E9EC4B8" Ref="#PWR?"  Part="1" 
AR Path="/5E0F0C92/5E9EC4B8" Ref="#PWR?"  Part="1" 
AR Path="/5E0F83A6/5E9EC4B8" Ref="#PWR?"  Part="1" 
AR Path="/5E4D81A8/5E4DEAF3/5E9EC4B8" Ref="#PWR0114"  Part="1" 
AR Path="/5E4D81A8/5E4DEAFB/5E9EC4B8" Ref="#PWR0100"  Part="1" 
AR Path="/5E4D81A8/5E4DEAFF/5E9EC4B8" Ref="#PWR0102"  Part="1" 
F 0 "#PWR0114" H 5550 3500 50  0001 C CNN
F 1 "GND" H 5555 3577 50  0000 C CNN
F 2 "" H 5550 3750 50  0001 C CNN
F 3 "" H 5550 3750 50  0001 C CNN
	1    5550 3750
	1    0    0    -1  
$EndComp
$Comp
L power:GND #PWR?
U 1 1 5E9EC4BE
P 5050 3750
AR Path="/5E3FB577/5E9EC4BE" Ref="#PWR?"  Part="1" 
AR Path="/5E0F0C92/5E9EC4BE" Ref="#PWR?"  Part="1" 
AR Path="/5E0F83A6/5E9EC4BE" Ref="#PWR?"  Part="1" 
AR Path="/5E4D81A8/5E4DEAF3/5E9EC4BE" Ref="#PWR0113"  Part="1" 
AR Path="/5E4D81A8/5E4DEAFB/5E9EC4BE" Ref="#PWR099"  Part="1" 
AR Path="/5E4D81A8/5E4DEAFF/5E9EC4BE" Ref="#PWR0101"  Part="1" 
F 0 "#PWR0113" H 5050 3500 50  0001 C CNN
F 1 "GND" H 5055 3577 50  0000 C CNN
F 2 "" H 5050 3750 50  0001 C CNN
F 3 "" H 5050 3750 50  0001 C CNN
	1    5050 3750
	1    0    0    -1  
$EndComp
$Comp
L Device:C C?
U 1 1 5E9EC4C4
P 5550 3500
AR Path="/5E3FB577/5E9EC4C4" Ref="C?"  Part="1" 
AR Path="/5E0F0C92/5E9EC4C4" Ref="C?"  Part="1" 
AR Path="/5E0F83A6/5E9EC4C4" Ref="C?"  Part="1" 
AR Path="/5E4D81A8/5E4DEAF3/5E9EC4C4" Ref="C49"  Part="1" 
AR Path="/5E4D81A8/5E4DEAFB/5E9EC4C4" Ref="C43"  Part="1" 
AR Path="/5E4D81A8/5E4DEAFF/5E9EC4C4" Ref="C44"  Part="1" 
F 0 "C49" H 5665 3546 50  0000 L CNN
F 1 "26n" H 5665 3455 50  0000 L CNN
F 2 "Resistor_SMD:R_0805_2012Metric" H 5588 3350 50  0001 C CNN
F 3 "~" H 5550 3500 50  0001 C CNN
	1    5550 3500
	1    0    0    -1  
$EndComp
$Comp
L Device:R R?
U 1 1 5E9EC4CA
P 5050 3500
AR Path="/5E3FB577/5E9EC4CA" Ref="R?"  Part="1" 
AR Path="/5E0F0C92/5E9EC4CA" Ref="R?"  Part="1" 
AR Path="/5E0F83A6/5E9EC4CA" Ref="R?"  Part="1" 
AR Path="/5E4D81A8/5E4DEAF3/5E9EC4CA" Ref="R58"  Part="1" 
AR Path="/5E4D81A8/5E4DEAFB/5E9EC4CA" Ref="R46"  Part="1" 
AR Path="/5E4D81A8/5E4DEAFF/5E9EC4CA" Ref="R48"  Part="1" 
F 0 "R58" H 5120 3546 50  0000 L CNN
F 1 "155k" H 5120 3455 50  0000 L CNN
F 2 "Resistor_SMD:R_0805_2012Metric" V 4980 3500 50  0001 C CNN
F 3 "~" H 5050 3500 50  0001 C CNN
	1    5050 3500
	1    0    0    -1  
$EndComp
$Comp
L Device:R R?
U 1 1 5E9EC4D0
P 5050 3000
AR Path="/5E3FB577/5E9EC4D0" Ref="R?"  Part="1" 
AR Path="/5E0F0C92/5E9EC4D0" Ref="R?"  Part="1" 
AR Path="/5E0F83A6/5E9EC4D0" Ref="R?"  Part="1" 
AR Path="/5E4D81A8/5E4DEAF3/5E9EC4D0" Ref="R57"  Part="1" 
AR Path="/5E4D81A8/5E4DEAFB/5E9EC4D0" Ref="R45"  Part="1" 
AR Path="/5E4D81A8/5E4DEAFF/5E9EC4D0" Ref="R47"  Part="1" 
F 0 "R57" H 5120 3046 50  0000 L CNN
F 1 "100k" H 5120 2955 50  0000 L CNN
F 2 "Resistor_SMD:R_0805_2012Metric" V 4980 3000 50  0001 C CNN
F 3 "~" H 5050 3000 50  0001 C CNN
	1    5050 3000
	1    0    0    -1  
$EndComp
$EndSCHEMATC
