EESchema Schematic File Version 4
EELAYER 30 0
EELAYER END
$Descr A4 11693 8268
encoding utf-8
Sheet 1 41
Title "Main"
Date ""
Rev ""
Comp "LibreCube"
Comment1 ""
Comment2 ""
Comment3 ""
Comment4 ""
$EndDescr
$Comp
L Connector:Conn_01x02_Male P1
U 1 1 597FA0C9
P 700 1050
F 0 "P1" H 700 1200 50  0000 C CNN
F 1 "CONN_01X02" V 800 1050 50  0000 C CNN
F 2 "Connector_PinHeader_2.54mm:PinHeader_1x02_P2.54mm_Vertical" H 700 1050 50  0001 C CNN
F 3 "" H 700 1050 50  0000 C CNN
	1    700  1050
	1    0    0    -1  
$EndComp
$Comp
L Connector:Conn_01x02_Male P3
U 1 1 597FA159
P 700 2150
F 0 "P3" H 700 2300 50  0000 C CNN
F 1 "CONN_01X02" V 800 2150 50  0000 C CNN
F 2 "Connector_PinHeader_2.54mm:PinHeader_1x02_P2.54mm_Vertical" H 700 2150 50  0001 C CNN
F 3 "" H 700 2150 50  0000 C CNN
	1    700  2150
	1    0    0    -1  
$EndComp
$Comp
L Connector:Conn_01x02_Male P4
U 1 1 597FA1B6
P 700 2700
F 0 "P4" H 700 2850 50  0000 C CNN
F 1 "CONN_01X02" V 800 2700 50  0000 C CNN
F 2 "Connector_PinHeader_2.54mm:PinHeader_1x02_P2.54mm_Vertical" H 700 2700 50  0001 C CNN
F 3 "" H 700 2700 50  0000 C CNN
	1    700  2700
	1    0    0    -1  
$EndComp
$Comp
L Connector:Conn_01x02_Male P5
U 1 1 597FA203
P 700 3250
F 0 "P5" H 700 3400 50  0000 C CNN
F 1 "CONN_01X02" V 800 3250 50  0000 C CNN
F 2 "Connector_PinHeader_2.54mm:PinHeader_1x02_P2.54mm_Vertical" H 700 3250 50  0001 C CNN
F 3 "" H 700 3250 50  0000 C CNN
	1    700  3250
	1    0    0    -1  
$EndComp
Wire Wire Line
	800  2800 900  2800
Text Label 4650 4950 2    60   ~ 0
LCL1_ON
Wire Wire Line
	4650 4950 4200 4950
Text Label 4650 5050 2    60   ~ 0
LCL2_ON
Wire Wire Line
	4650 5050 4200 5050
Text Label 4650 5150 2    60   ~ 0
LCL3_ON
Wire Wire Line
	4650 5150 4200 5150
Text Label 4650 5250 2    60   ~ 0
LCL4_ON
Wire Wire Line
	4650 5250 4200 5250
Text Label 4650 5350 2    60   ~ 0
LCL5_ON
Wire Wire Line
	4650 5350 4200 5350
$Comp
L Connector:Conn_01x02_Male P6
U 1 1 597FA228
P 700 3800
F 0 "P6" H 700 3950 50  0000 C CNN
F 1 "CONN_01X02" V 800 3800 50  0000 C CNN
F 2 "Connector_PinHeader_2.54mm:PinHeader_1x02_P2.54mm_Vertical" H 700 3800 50  0001 C CNN
F 3 "" H 700 3800 50  0000 C CNN
	1    700  3800
	1    0    0    -1  
$EndComp
$Comp
L power:GND #PWR06
U 1 1 5C805A3F
P 900 3900
F 0 "#PWR06" H 900 3650 50  0001 C CNN
F 1 "GND" H 905 3727 50  0000 C CNN
F 2 "" H 900 3900 50  0001 C CNN
F 3 "" H 900 3900 50  0001 C CNN
	1    900  3900
	1    0    0    -1  
$EndComp
Wire Wire Line
	2200 5550 2750 5550
Wire Wire Line
	2200 5450 2750 5450
Wire Wire Line
	2200 5350 2750 5350
Wire Wire Line
	2200 5250 2750 5250
Text Label 2200 5550 0    60   ~ 0
CAN_B_H
Text Label 2200 5450 0    60   ~ 0
CAN_B_L
Text Label 2200 5350 0    60   ~ 0
CAN_A_H
Text Label 2200 5250 0    60   ~ 0
CAN_A_L
Wire Wire Line
	2100 5000 2750 5000
Wire Wire Line
	2100 4900 2750 4900
Text Label 2100 4900 0    60   ~ 0
SEL_TMTC_IF_A
$Comp
L power:GND #PWR05
U 1 1 5E146C62
P 900 3350
F 0 "#PWR05" H 900 3100 50  0001 C CNN
F 1 "GND" H 905 3177 50  0000 C CNN
F 2 "" H 900 3350 50  0001 C CNN
F 3 "" H 900 3350 50  0001 C CNN
	1    900  3350
	1    0    0    -1  
$EndComp
$Comp
L power:GND #PWR04
U 1 1 5E14736D
P 900 2800
F 0 "#PWR04" H 900 2550 50  0001 C CNN
F 1 "GND" H 905 2627 50  0000 C CNN
F 2 "" H 900 2800 50  0001 C CNN
F 3 "" H 900 2800 50  0001 C CNN
	1    900  2800
	1    0    0    -1  
$EndComp
$Comp
L power:GND #PWR03
U 1 1 5E14773B
P 900 2250
F 0 "#PWR03" H 900 2000 50  0001 C CNN
F 1 "GND" H 905 2077 50  0000 C CNN
F 2 "" H 900 2250 50  0001 C CNN
F 3 "" H 900 2250 50  0001 C CNN
	1    900  2250
	1    0    0    -1  
$EndComp
$Comp
L power:GND #PWR02
U 1 1 5E147C6A
P 900 1700
F 0 "#PWR02" H 900 1450 50  0001 C CNN
F 1 "GND" H 905 1527 50  0000 C CNN
F 2 "" H 900 1700 50  0001 C CNN
F 3 "" H 900 1700 50  0001 C CNN
	1    900  1700
	1    0    0    -1  
$EndComp
$Comp
L power:GND #PWR01
U 1 1 5E148102
P 900 1150
F 0 "#PWR01" H 900 900 50  0001 C CNN
F 1 "GND" H 905 977 50  0000 C CNN
F 2 "" H 900 1150 50  0001 C CNN
F 3 "" H 900 1150 50  0001 C CNN
	1    900  1150
	1    0    0    -1  
$EndComp
$Comp
L Connector:Conn_01x02_Male P2
U 1 1 597FA126
P 700 1600
F 0 "P2" H 700 1750 50  0000 C CNN
F 1 "CONN_01X02" V 800 1600 50  0000 C CNN
F 2 "Connector_PinHeader_2.54mm:PinHeader_1x02_P2.54mm_Vertical" H 700 1600 50  0001 C CNN
F 3 "" H 700 1600 50  0000 C CNN
	1    700  1600
	1    0    0    -1  
$EndComp
Wire Wire Line
	7250 4450 6800 4450
Wire Wire Line
	7250 4550 6800 4550
Wire Wire Line
	7250 4650 6800 4650
Wire Wire Line
	7250 4750 6800 4750
Wire Wire Line
	7250 5350 6800 5350
Wire Wire Line
	7250 5450 6800 5450
Wire Wire Line
	7250 5550 6800 5550
Wire Wire Line
	7250 5650 6800 5650
Wire Wire Line
	7250 5750 6800 5750
Wire Wire Line
	7250 5850 6800 5850
Wire Wire Line
	7250 5950 6800 5950
Text Label 7250 4450 2    50   ~ 0
V_SA_M
Text Label 7250 4550 2    50   ~ 0
V_SRB_M
Text Label 7250 4650 2    50   ~ 0
V_FRB_M
Text Label 7250 4750 2    50   ~ 0
V_BAT_M
Text Label 7250 5350 2    50   ~ 0
I_FCL1_M
Text Label 7250 5450 2    50   ~ 0
I_FCL2_M
Text Label 7250 5550 2    50   ~ 0
I_LCL1_M
Text Label 7250 5650 2    50   ~ 0
I_LCL2_M
Text Label 7250 5750 2    50   ~ 0
I_LCL3_M
Text Label 7250 5850 2    50   ~ 0
I_LCL4_M
Text Label 7250 5950 2    50   ~ 0
I_LCL5_M
$Sheet
S 7000 900  1750 2350
U 5E452A4F
F0 "power distribution unit" 50
F1 "power distribution unit.sch" 50
F2 "5V" I L 7000 1150 50 
F3 "FCL1_OUT" O R 8750 1100 50 
F4 "FCL2_OUT" O R 8750 1200 50 
F5 "LCL1_OUT" O R 8750 1350 50 
F6 "LCL2_OUT" O R 8750 1450 50 
F7 "LCL3_OUT" O R 8750 1550 50 
F8 "LCL4_OUT" O R 8750 1650 50 
F9 "LCL5_OUT" O R 8750 1750 50 
F10 "I_FCL1_M" O R 8750 1950 50 
F11 "I_FCL2_M" O R 8750 2050 50 
F12 "I_LCL1_M" O R 8750 2200 50 
F13 "I_LCL2_M" O R 8750 2300 50 
F14 "I_LCL3_M" O R 8750 2400 50 
F15 "I_LCL4_M" O R 8750 2500 50 
F16 "I_LCL5_M" O R 8750 2600 50 
F17 "LCL1_ON" I L 7000 1350 50 
F18 "LCL2_ON" I L 7000 1450 50 
F19 "LCL3_ON" I L 7000 1550 50 
F20 "LCL4_ON" I L 7000 1650 50 
F21 "LCL5_ON" I L 7000 1750 50 
$EndSheet
Text Label 7000 1450 2    50   ~ 0
LCL2_ON
Text Label 7000 1550 2    50   ~ 0
LCL3_ON
Text Label 7000 1650 2    50   ~ 0
LCL4_ON
Text Label 7000 1750 2    50   ~ 0
LCL5_ON
Text Label 8750 1100 0    50   ~ 0
FCL1_OUT
Text Label 8750 1200 0    50   ~ 0
FCL2_OUT
Text Label 8750 1350 0    50   ~ 0
LCL1_OUT
Text Label 8750 1450 0    50   ~ 0
LCL2_OUT
Text Label 8750 1550 0    50   ~ 0
LCL3_OUT
Text Label 8750 1650 0    50   ~ 0
LCL4_OUT
Text Label 8750 1750 0    50   ~ 0
LCL5_OUT
Text Label 8750 1950 0    50   ~ 0
I_FCL1_M
Text Label 8750 2050 0    50   ~ 0
I_FCL2_M
Text Label 8750 2200 0    50   ~ 0
I_LCL1_M
Text Label 8750 2300 0    50   ~ 0
I_LCL2_M
Text Label 8750 2400 0    50   ~ 0
I_LCL3_M
Text Label 8750 2500 0    50   ~ 0
I_LCL4_M
Text Label 8750 2600 0    50   ~ 0
I_LCL5_M
Wire Wire Line
	3800 2000 4000 2000
Wire Wire Line
	3800 2100 4000 2100
Wire Wire Line
	3800 2200 4000 2200
Wire Wire Line
	3800 2300 4000 2300
Text Label 3800 2000 0    50   ~ 0
S2
Text Label 3800 2100 0    50   ~ 0
S3
Text Label 3800 2200 0    50   ~ 0
S4
Text Label 3800 2300 0    50   ~ 0
S5
Wire Wire Line
	3700 1800 4000 1800
Text Label 3700 1800 0    50   ~ 0
CHARGE
Wire Wire Line
	900  3800 2550 3800
Wire Wire Line
	2550 3800 2550 1650
Wire Wire Line
	2550 1650 4000 1650
Wire Wire Line
	4000 1550 2450 1550
Wire Wire Line
	2450 1550 2450 3250
Wire Wire Line
	2450 3250 900  3250
Wire Wire Line
	900  2700 2350 2700
Wire Wire Line
	2350 2700 2350 1450
Wire Wire Line
	2350 1450 4000 1450
Wire Wire Line
	4000 1350 2250 1350
Wire Wire Line
	2250 1350 2250 2150
Wire Wire Line
	2250 2150 900  2150
Wire Wire Line
	900  1600 2150 1600
Wire Wire Line
	2150 1600 2150 1250
Wire Wire Line
	2150 1250 4000 1250
Wire Wire Line
	4000 1150 2150 1150
Wire Wire Line
	2150 1150 2150 1050
Wire Wire Line
	2150 1050 900  1050
Wire Wire Line
	5850 1650 5500 1650
Wire Wire Line
	5850 1750 5500 1750
Wire Wire Line
	5850 1850 5500 1850
Wire Wire Line
	5850 1950 5500 1950
Wire Wire Line
	5850 2050 5500 2050
Wire Wire Line
	5850 2200 5500 2200
Wire Wire Line
	5850 2300 5500 2300
Wire Wire Line
	5850 2400 5500 2400
Wire Wire Line
	5850 2500 5500 2500
Text Label 5850 1650 2    50   ~ 0
I_SA_M
Text Label 5850 1750 2    50   ~ 0
I_SRB_M
Text Label 5850 1850 2    50   ~ 0
I_BCC_M
Text Label 5850 1950 2    50   ~ 0
I_BDC_M
Text Label 5850 2050 2    50   ~ 0
I_FRB_M
Text Label 5850 2200 2    50   ~ 0
V_SA_M
Text Label 5850 2300 2    50   ~ 0
V_SRB_M
Text Label 5850 2400 2    50   ~ 0
V_BAT_M
Text Label 5850 2500 2    50   ~ 0
V_FRB_M
Wire Wire Line
	7250 4850 6800 4850
Wire Wire Line
	7250 4950 6800 4950
Wire Wire Line
	7250 5050 6800 5050
Wire Wire Line
	7250 5150 6800 5150
Wire Wire Line
	7250 5250 6800 5250
Text Label 7250 4850 2    50   ~ 0
I_SA_M
Text Label 7250 4950 2    50   ~ 0
I_SRB_M
Text Label 7250 5050 2    50   ~ 0
I_BCC_M
Text Label 7250 5150 2    50   ~ 0
I_BDC_M
Text Label 7250 5250 2    50   ~ 0
I_FRB_M
$Sheet
S 4000 1000 1500 2000
U 5E4D81A8
F0 "power conditioning unit" 50
F1 "power conditioning unit.sch" 50
F2 "SAXP" I L 4000 1150 50 
F3 "SAXM" I L 4000 1250 50 
F4 "SAYP" I L 4000 1350 50 
F5 "SAYM" I L 4000 1450 50 
F6 "SAZP" I L 4000 1550 50 
F7 "SAZM" I L 4000 1650 50 
F8 "CHARGE" I L 4000 1800 50 
F9 "I_SA_M" O R 5500 1650 50 
F10 "V_SA_M" O R 5500 2200 50 
F11 "V_SRB_M" O R 5500 2300 50 
F12 "I_SRB_M" O R 5500 1750 50 
F13 "I_BCC_M" O R 5500 1850 50 
F14 "I_BDC_M" O R 5500 1950 50 
F15 "V_BAT_M" O R 5500 2400 50 
F16 "S2" I L 4000 2000 50 
F17 "S3" I L 4000 2100 50 
F18 "S4" I L 4000 2200 50 
F19 "S5" I L 4000 2300 50 
F20 "5V" O R 5500 1150 50 
F21 "I_FRB_M" O R 5500 2050 50 
F22 "V_FRB_M" O R 5500 2500 50 
$EndSheet
$Comp
L Connector_Generic:Conn_01x16 J?
U 1 1 5E933A89
P 6600 5150
AR Path="/5E5E12C9/5E933A89" Ref="J?"  Part="1" 
AR Path="/5E933A89" Ref="J1"  Part="1" 
F 0 "J1" H 6518 6067 50  0000 C CNN
F 1 "Conn_01x16" H 6518 5976 50  0000 C CNN
F 2 "Connector_PinHeader_2.54mm:PinHeader_1x16_P2.54mm_Vertical" H 6600 5150 50  0001 C CNN
F 3 "~" H 6600 5150 50  0001 C CNN
	1    6600 5150
	-1   0    0    -1  
$EndComp
Text Notes 6550 4150 0    50   ~ 0
measurement signals
Wire Wire Line
	8350 4650 8900 4650
Wire Wire Line
	8350 4550 8900 4550
Wire Wire Line
	8350 4450 8900 4450
Wire Wire Line
	8350 4350 8900 4350
Text Label 8350 4650 0    60   ~ 0
CAN_B_H
Text Label 8350 4550 0    60   ~ 0
CAN_B_L
Text Label 8350 4450 0    60   ~ 0
CAN_A_H
Text Label 8350 4350 0    60   ~ 0
CAN_A_L
Wire Wire Line
	10450 5900 9800 5900
Wire Wire Line
	10450 5800 9800 5800
Wire Wire Line
	8350 4950 8900 4950
Wire Wire Line
	8350 4850 8900 4850
Text Label 8350 4950 0    60   ~ 0
FCL2_OUT
Text Label 8350 4850 0    60   ~ 0
FCL1_OUT
Wire Wire Line
	8350 5700 8900 5700
Text Label 8350 5700 0    60   ~ 0
CHARGE
Wire Wire Line
	8350 5500 8900 5500
Wire Wire Line
	8350 5400 8900 5400
Wire Wire Line
	8350 5300 8900 5300
Wire Wire Line
	8350 5200 8900 5200
Wire Wire Line
	8350 5100 8900 5100
Text Label 8350 5500 0    60   ~ 0
LCL5_OUT
Text Label 8350 5400 0    60   ~ 0
LCL4_OUT
Text Label 8350 5300 0    60   ~ 0
LCL3_OUT
Text Label 8350 5200 0    60   ~ 0
LCL2_OUT
Text Label 8350 5100 0    60   ~ 0
LCL1_OUT
Wire Wire Line
	10000 5600 9800 5600
Wire Wire Line
	10000 5500 9800 5500
Wire Wire Line
	10000 5400 9800 5400
Wire Wire Line
	10000 5300 9800 5300
Text Label 10000 5600 2    60   ~ 0
S5
Text Label 10000 5500 2    60   ~ 0
S4
Text Label 10000 5400 2    60   ~ 0
S3
Text Label 10000 5300 2    60   ~ 0
S2
$Sheet
S 8900 4250 900  1750
U 59848DD8
F0 "cubesat connector" 60
F1 "cubesat connector.sch" 60
F2 "CAN_A_L" I L 8900 4350 60 
F3 "CAN_A_H" I L 8900 4450 60 
F4 "CAN_B_L" I L 8900 4550 60 
F5 "CAN_B_H" I L 8900 4650 60 
F6 "FCL1" I L 8900 4850 60 
F7 "FCL2" I L 8900 4950 60 
F8 "LCL1" I L 8900 5100 60 
F9 "LCL2" I L 8900 5200 60 
F10 "LCL3" I L 8900 5300 60 
F11 "LCL4" I L 8900 5400 60 
F12 "LCL5" I L 8900 5500 60 
F13 "S0" I R 9800 5100 60 
F14 "S1" I R 9800 5200 60 
F15 "S2" I R 9800 5300 60 
F16 "S3" I R 9800 5400 60 
F17 "S4" I R 9800 5500 60 
F18 "S5" I R 9800 5600 60 
F19 "CHARGE" I L 8900 5700 60 
F20 "SEL_PCDU_RT_A" I R 9800 5800 60 
F21 "SEL_PCDU_RT_B" I R 9800 5900 60 
$EndSheet
$Sheet
S 2750 4750 1450 1050
U 598681C9
F0 "tmtc module" 60
F1 "tmtc module.sch" 60
F2 "SEL_TMTC_IF_A" I L 2750 4900 60 
F3 "SEL_TMTC_IF_B" I L 2750 5000 60 
F4 "CAN_A_L" I L 2750 5250 60 
F5 "CAN_A_H" I L 2750 5350 60 
F6 "CAN_B_L" I L 2750 5450 60 
F7 "CAN_B_H" I L 2750 5550 60 
F8 "LCL1_ON" I R 4200 4950 60 
F9 "LCL2_ON" I R 4200 5050 60 
F10 "LCL3_ON" I R 4200 5150 60 
F11 "LCL4_ON" I R 4200 5250 60 
F12 "LCL5_ON" I R 4200 5350 60 
$EndSheet
Text Label 9900 5800 0    60   ~ 0
SEL_TMTC_IF_A
Text Label 9900 5900 0    60   ~ 0
SEL_TMTC_IF_B
Text Label 2100 5000 0    60   ~ 0
SEL_TMTC_IF_B
Wire Wire Line
	6650 1350 7000 1350
Wire Wire Line
	6650 1450 7000 1450
Wire Wire Line
	6650 1550 7000 1550
Wire Wire Line
	6650 1650 7000 1650
Wire Wire Line
	6650 1750 7000 1750
Wire Wire Line
	8750 1350 9100 1350
Wire Wire Line
	8750 1450 9100 1450
Wire Wire Line
	8750 1550 9100 1550
Wire Wire Line
	8750 1650 9100 1650
Wire Wire Line
	8750 1750 9100 1750
Wire Wire Line
	8750 2200 9100 2200
Wire Wire Line
	8750 2300 9100 2300
Wire Wire Line
	8750 2400 9100 2400
Wire Wire Line
	8750 2500 9100 2500
Wire Wire Line
	8750 2600 9100 2600
Wire Wire Line
	9100 1950 8750 1950
Wire Wire Line
	9100 2050 8750 2050
Wire Wire Line
	9100 1200 8750 1200
Wire Wire Line
	9100 1100 8750 1100
Text Label 7000 1350 2    50   ~ 0
LCL1_ON
Text Label 5650 1150 0    50   ~ 0
5V
$Comp
L Mechanical:MountingHole M1
U 1 1 5E95CD9A
P 900 6700
F 0 "M1" H 1000 6746 50  0000 L CNN
F 1 "MountingHole" H 1000 6655 50  0000 L CNN
F 2 "MountingHole:MountingHole_3.2mm_M3_Pad" H 900 6700 50  0001 C CNN
F 3 "~" H 900 6700 50  0001 C CNN
	1    900  6700
	1    0    0    -1  
$EndComp
$Comp
L Mechanical:MountingHole M2
U 1 1 5E95CF6E
P 900 6950
F 0 "M2" H 1000 6996 50  0000 L CNN
F 1 "MountingHole" H 1000 6905 50  0000 L CNN
F 2 "MountingHole:MountingHole_3.2mm_M3_Pad" H 900 6950 50  0001 C CNN
F 3 "~" H 900 6950 50  0001 C CNN
	1    900  6950
	1    0    0    -1  
$EndComp
$Comp
L Mechanical:MountingHole M3
U 1 1 5E95D393
P 900 7200
F 0 "M3" H 1000 7246 50  0000 L CNN
F 1 "MountingHole" H 1000 7155 50  0000 L CNN
F 2 "MountingHole:MountingHole_3.2mm_M3_Pad" H 900 7200 50  0001 C CNN
F 3 "~" H 900 7200 50  0001 C CNN
	1    900  7200
	1    0    0    -1  
$EndComp
$Comp
L Mechanical:MountingHole M4
U 1 1 5E95D77D
P 900 7450
F 0 "M4" H 1000 7496 50  0000 L CNN
F 1 "MountingHole" H 1000 7405 50  0000 L CNN
F 2 "MountingHole:MountingHole_3.2mm_M3_Pad" H 900 7450 50  0001 C CNN
F 3 "~" H 900 7450 50  0001 C CNN
	1    900  7450
	1    0    0    -1  
$EndComp
Wire Wire Line
	5500 1150 7000 1150
$EndSCHEMATC
