EESchema Schematic File Version 4
EELAYER 30 0
EELAYER END
$Descr A4 11693 8268
encoding utf-8
Sheet 23 41
Title ""
Date ""
Rev ""
Comp "LibreCube"
Comment1 ""
Comment2 ""
Comment3 ""
Comment4 ""
$EndDescr
$Comp
L mylib:TPS2034 U?
U 1 1 5E9138B1
P 5700 3450
AR Path="/5981D798/5983DD90/5E9138B1" Ref="U?"  Part="1" 
AR Path="/5981D798/5983E4FD/5E9138B1" Ref="U?"  Part="1" 
AR Path="/59824968/5983F4B3/5E9138B1" Ref="U?"  Part="1" 
AR Path="/59824968/5983F7D4/5E9138B1" Ref="U?"  Part="1" 
AR Path="/5982788E/5983F4B3/5E9138B1" Ref="U?"  Part="1" 
AR Path="/5982788E/5983F7D4/5E9138B1" Ref="U?"  Part="1" 
AR Path="/59829749/59842ECB/5E9138B1" Ref="U?"  Part="1" 
AR Path="/59829749/59842FE8/5E9138B1" Ref="U?"  Part="1" 
AR Path="/59841F95/59842ECB/5E9138B1" Ref="U?"  Part="1" 
AR Path="/59841F95/59842FE8/5E9138B1" Ref="U?"  Part="1" 
AR Path="/59845D4E/59842ECB/5E9138B1" Ref="U?"  Part="1" 
AR Path="/59845D4E/59842FE8/5E9138B1" Ref="U?"  Part="1" 
AR Path="/59845ED6/59842ECB/5E9138B1" Ref="U?"  Part="1" 
AR Path="/59845ED6/59842FE8/5E9138B1" Ref="U?"  Part="1" 
AR Path="/59846013/59842ECB/5E9138B1" Ref="U?"  Part="1" 
AR Path="/59846013/59842FE8/5E9138B1" Ref="U?"  Part="1" 
AR Path="/5E452A4F/5E4560E3/5983F4B3/5E9138B1" Ref="U3"  Part="1" 
AR Path="/5E452A4F/5E4560E3/5983F7D4/5E9138B1" Ref="U4"  Part="1" 
AR Path="/5E452A4F/5E456156/59842ECB/5E9138B1" Ref="U13"  Part="1" 
AR Path="/5E452A4F/5E456156/59842FE8/5E9138B1" Ref="U14"  Part="1" 
AR Path="/5E452A4F/5E45615B/59842ECB/5E9138B1" Ref="U11"  Part="1" 
AR Path="/5E452A4F/5E45615B/59842FE8/5E9138B1" Ref="U12"  Part="1" 
AR Path="/5E452A4F/5E456160/59842ECB/5E9138B1" Ref="U9"  Part="1" 
AR Path="/5E452A4F/5E456160/59842FE8/5E9138B1" Ref="U10"  Part="1" 
AR Path="/5E452A4F/5E456165/59842ECB/5E9138B1" Ref="U7"  Part="1" 
AR Path="/5E452A4F/5E456165/59842FE8/5E9138B1" Ref="U8"  Part="1" 
AR Path="/5E452A4F/5E45616A/59842ECB/5E9138B1" Ref="U1"  Part="1" 
AR Path="/5E452A4F/5E45616A/59842FE8/5E9138B1" Ref="U2"  Part="1" 
AR Path="/5E452A4F/5E45616E/5983F4B3/5E9138B1" Ref="U5"  Part="1" 
AR Path="/5E452A4F/5E45616E/5983F7D4/5E9138B1" Ref="U6"  Part="1" 
AR Path="/5E4D81A8/5E4DE9FE/5983DD90/5E9138B1" Ref="U24"  Part="1" 
AR Path="/5E4D81A8/5E4DE9FE/5983E4FD/5E9138B1" Ref="U25"  Part="1" 
F 0 "U25" H 5700 3100 50  0000 C CNN
F 1 "TPS2034" H 5400 3000 50  0000 C CNN
F 2 "Package_SO:SOIC-8_5.275x5.275mm_P1.27mm" H 5700 3200 60  0001 C CNN
F 3 "" H 5700 3200 60  0000 C CNN
	1    5700 3450
	1    0    0    -1  
$EndComp
Text HLabel 7300 3150 2    60   Output ~ 0
OUT
Text HLabel 3600 3350 0    60   Input ~ 0
IN
Text HLabel 3600 4000 0    60   Input ~ 0
EN
Wire Wire Line
	6700 3550 6300 3550
Wire Wire Line
	6700 3150 6700 3350
Wire Wire Line
	6300 3150 6700 3150
Connection ~ 6700 3150
Wire Wire Line
	6300 3350 6700 3350
Connection ~ 6700 3350
$Comp
L Device:C C?
U 1 1 5E9138B2
P 4300 3500
AR Path="/5981D798/5983DD90/5E9138B2" Ref="C?"  Part="1" 
AR Path="/5981D798/5983E4FD/5E9138B2" Ref="C?"  Part="1" 
AR Path="/59824968/5983F4B3/5E9138B2" Ref="C?"  Part="1" 
AR Path="/59824968/5983F7D4/5E9138B2" Ref="C?"  Part="1" 
AR Path="/5982788E/5983F4B3/5E9138B2" Ref="C?"  Part="1" 
AR Path="/5982788E/5983F7D4/5E9138B2" Ref="C?"  Part="1" 
AR Path="/59829749/59842ECB/5E9138B2" Ref="C?"  Part="1" 
AR Path="/59829749/59842FE8/5E9138B2" Ref="C?"  Part="1" 
AR Path="/59841F95/59842ECB/5E9138B2" Ref="C?"  Part="1" 
AR Path="/59841F95/59842FE8/5E9138B2" Ref="C?"  Part="1" 
AR Path="/59845D4E/59842ECB/5E9138B2" Ref="C?"  Part="1" 
AR Path="/59845D4E/59842FE8/5E9138B2" Ref="C?"  Part="1" 
AR Path="/59845ED6/59842ECB/5E9138B2" Ref="C?"  Part="1" 
AR Path="/59845ED6/59842FE8/5E9138B2" Ref="C?"  Part="1" 
AR Path="/59846013/59842ECB/5E9138B2" Ref="C?"  Part="1" 
AR Path="/59846013/59842FE8/5E9138B2" Ref="C?"  Part="1" 
AR Path="/5E452A4F/5E4560E3/5983F4B3/5E9138B2" Ref="C5"  Part="1" 
AR Path="/5E452A4F/5E4560E3/5983F7D4/5E9138B2" Ref="C7"  Part="1" 
AR Path="/5E452A4F/5E456156/59842ECB/5E9138B2" Ref="C25"  Part="1" 
AR Path="/5E452A4F/5E456156/59842FE8/5E9138B2" Ref="C27"  Part="1" 
AR Path="/5E452A4F/5E45615B/59842ECB/5E9138B2" Ref="C21"  Part="1" 
AR Path="/5E452A4F/5E45615B/59842FE8/5E9138B2" Ref="C23"  Part="1" 
AR Path="/5E452A4F/5E456160/59842ECB/5E9138B2" Ref="C17"  Part="1" 
AR Path="/5E452A4F/5E456160/59842FE8/5E9138B2" Ref="C19"  Part="1" 
AR Path="/5E452A4F/5E456165/59842ECB/5E9138B2" Ref="C13"  Part="1" 
AR Path="/5E452A4F/5E456165/59842FE8/5E9138B2" Ref="C15"  Part="1" 
AR Path="/5E452A4F/5E45616A/59842ECB/5E9138B2" Ref="C1"  Part="1" 
AR Path="/5E452A4F/5E45616A/59842FE8/5E9138B2" Ref="C3"  Part="1" 
AR Path="/5E452A4F/5E45616E/5983F4B3/5E9138B2" Ref="C9"  Part="1" 
AR Path="/5E452A4F/5E45616E/5983F7D4/5E9138B2" Ref="C11"  Part="1" 
AR Path="/5E4D81A8/5E4DE9FE/5983DD90/5E9138B2" Ref="C35"  Part="1" 
AR Path="/5E4D81A8/5E4DE9FE/5983E4FD/5E9138B2" Ref="C37"  Part="1" 
F 0 "C37" H 4325 3600 50  0000 L CNN
F 1 "0.1uF" H 4325 3400 50  0000 L CNN
F 2 "Capacitor_SMD:C_0805_2012Metric" H 4338 3350 50  0001 C CNN
F 3 "" H 4300 3500 50  0000 C CNN
	1    4300 3500
	1    0    0    -1  
$EndComp
Connection ~ 4700 3350
Wire Wire Line
	5100 4000 5100 3750
$Comp
L Device:C C?
U 1 1 598BF802
P 7000 3300
AR Path="/5981D798/5983DD90/598BF802" Ref="C?"  Part="1" 
AR Path="/5981D798/5983E4FD/598BF802" Ref="C?"  Part="1" 
AR Path="/59824968/5983F4B3/598BF802" Ref="C?"  Part="1" 
AR Path="/59824968/5983F7D4/598BF802" Ref="C?"  Part="1" 
AR Path="/5982788E/5983F4B3/598BF802" Ref="C?"  Part="1" 
AR Path="/5982788E/5983F7D4/598BF802" Ref="C?"  Part="1" 
AR Path="/59829749/59842ECB/598BF802" Ref="C?"  Part="1" 
AR Path="/59829749/59842FE8/598BF802" Ref="C?"  Part="1" 
AR Path="/59841F95/59842ECB/598BF802" Ref="C?"  Part="1" 
AR Path="/59841F95/59842FE8/598BF802" Ref="C?"  Part="1" 
AR Path="/59845D4E/59842ECB/598BF802" Ref="C?"  Part="1" 
AR Path="/59845D4E/59842FE8/598BF802" Ref="C?"  Part="1" 
AR Path="/59845ED6/59842ECB/598BF802" Ref="C?"  Part="1" 
AR Path="/59845ED6/59842FE8/598BF802" Ref="C?"  Part="1" 
AR Path="/59846013/59842ECB/598BF802" Ref="C?"  Part="1" 
AR Path="/59846013/59842FE8/598BF802" Ref="C?"  Part="1" 
AR Path="/5E452A4F/5E4560E3/5983F4B3/598BF802" Ref="C6"  Part="1" 
AR Path="/5E452A4F/5E4560E3/5983F7D4/598BF802" Ref="C8"  Part="1" 
AR Path="/5E452A4F/5E456156/59842ECB/598BF802" Ref="C26"  Part="1" 
AR Path="/5E452A4F/5E456156/59842FE8/598BF802" Ref="C28"  Part="1" 
AR Path="/5E452A4F/5E45615B/59842ECB/598BF802" Ref="C22"  Part="1" 
AR Path="/5E452A4F/5E45615B/59842FE8/598BF802" Ref="C24"  Part="1" 
AR Path="/5E452A4F/5E456160/59842ECB/598BF802" Ref="C18"  Part="1" 
AR Path="/5E452A4F/5E456160/59842FE8/598BF802" Ref="C20"  Part="1" 
AR Path="/5E452A4F/5E456165/59842ECB/598BF802" Ref="C14"  Part="1" 
AR Path="/5E452A4F/5E456165/59842FE8/598BF802" Ref="C16"  Part="1" 
AR Path="/5E452A4F/5E45616A/59842ECB/598BF802" Ref="C2"  Part="1" 
AR Path="/5E452A4F/5E45616A/59842FE8/598BF802" Ref="C4"  Part="1" 
AR Path="/5E452A4F/5E45616E/5983F4B3/598BF802" Ref="C10"  Part="1" 
AR Path="/5E452A4F/5E45616E/5983F7D4/598BF802" Ref="C12"  Part="1" 
AR Path="/5E4D81A8/5E4DE9FE/5983DD90/598BF802" Ref="C36"  Part="1" 
AR Path="/5E4D81A8/5E4DE9FE/5983E4FD/598BF802" Ref="C38"  Part="1" 
F 0 "C38" H 7025 3400 50  0000 L CNN
F 1 "0.1uF" H 7025 3200 50  0000 L CNN
F 2 "Capacitor_SMD:C_0805_2012Metric" H 7038 3150 50  0001 C CNN
F 3 "" H 7000 3300 50  0000 C CNN
	1    7000 3300
	1    0    0    -1  
$EndComp
$Comp
L Device:R R?
U 1 1 598BF86E
P 6650 4050
AR Path="/5981D798/5983DD90/598BF86E" Ref="R?"  Part="1" 
AR Path="/5981D798/5983E4FD/598BF86E" Ref="R?"  Part="1" 
AR Path="/59824968/5983F4B3/598BF86E" Ref="R?"  Part="1" 
AR Path="/59824968/5983F7D4/598BF86E" Ref="R?"  Part="1" 
AR Path="/5982788E/5983F4B3/598BF86E" Ref="R?"  Part="1" 
AR Path="/5982788E/5983F7D4/598BF86E" Ref="R?"  Part="1" 
AR Path="/59829749/59842ECB/598BF86E" Ref="R?"  Part="1" 
AR Path="/59829749/59842FE8/598BF86E" Ref="R?"  Part="1" 
AR Path="/59841F95/59842ECB/598BF86E" Ref="R?"  Part="1" 
AR Path="/59841F95/59842FE8/598BF86E" Ref="R?"  Part="1" 
AR Path="/59845D4E/59842ECB/598BF86E" Ref="R?"  Part="1" 
AR Path="/59845D4E/59842FE8/598BF86E" Ref="R?"  Part="1" 
AR Path="/59845ED6/59842ECB/598BF86E" Ref="R?"  Part="1" 
AR Path="/59845ED6/59842FE8/598BF86E" Ref="R?"  Part="1" 
AR Path="/59846013/59842ECB/598BF86E" Ref="R?"  Part="1" 
AR Path="/59846013/59842FE8/598BF86E" Ref="R?"  Part="1" 
AR Path="/5E452A4F/5E4560E3/5983F4B3/598BF86E" Ref="R6"  Part="1" 
AR Path="/5E452A4F/5E4560E3/5983F7D4/598BF86E" Ref="R8"  Part="1" 
AR Path="/5E452A4F/5E456156/59842ECB/598BF86E" Ref="R26"  Part="1" 
AR Path="/5E452A4F/5E456156/59842FE8/598BF86E" Ref="R28"  Part="1" 
AR Path="/5E452A4F/5E45615B/59842ECB/598BF86E" Ref="R22"  Part="1" 
AR Path="/5E452A4F/5E45615B/59842FE8/598BF86E" Ref="R24"  Part="1" 
AR Path="/5E452A4F/5E456160/59842ECB/598BF86E" Ref="R18"  Part="1" 
AR Path="/5E452A4F/5E456160/59842FE8/598BF86E" Ref="R20"  Part="1" 
AR Path="/5E452A4F/5E456165/59842ECB/598BF86E" Ref="R14"  Part="1" 
AR Path="/5E452A4F/5E456165/59842FE8/598BF86E" Ref="R16"  Part="1" 
AR Path="/5E452A4F/5E45616A/59842ECB/598BF86E" Ref="R2"  Part="1" 
AR Path="/5E452A4F/5E45616A/59842FE8/598BF86E" Ref="R4"  Part="1" 
AR Path="/5E452A4F/5E45616E/5983F4B3/598BF86E" Ref="R10"  Part="1" 
AR Path="/5E452A4F/5E45616E/5983F7D4/598BF86E" Ref="R12"  Part="1" 
AR Path="/5E4D81A8/5E4DE9FE/5983DD90/598BF86E" Ref="R37"  Part="1" 
AR Path="/5E4D81A8/5E4DE9FE/5983E4FD/598BF86E" Ref="R39"  Part="1" 
F 0 "R39" V 6730 4050 50  0000 C CNN
F 1 "10k" V 6650 4050 50  0000 C CNN
F 2 "Resistor_SMD:R_0805_2012Metric" V 6580 4050 50  0001 C CNN
F 3 "" H 6650 4050 50  0000 C CNN
	1    6650 4050
	1    0    0    -1  
$EndComp
Text HLabel 7300 3750 2    60   Output ~ 0
/OC
Wire Wire Line
	4700 4200 6650 4200
Wire Wire Line
	6700 3350 6700 3550
Wire Wire Line
	4700 3350 4800 3350
Wire Wire Line
	6700 3150 7000 3150
$Comp
L power:GND #PWR081
U 1 1 5E9138BB
P 4300 3650
AR Path="/5E4D81A8/5E4DE9FE/5983DD90/5E9138BB" Ref="#PWR081"  Part="1" 
AR Path="/5E4D81A8/5E4DE9FE/5983E4FD/5E9138BB" Ref="#PWR084"  Part="1" 
AR Path="/5E452A4F/5E4560E3/5983F4B3/5E9138BB" Ref="#PWR017"  Part="1" 
AR Path="/5E452A4F/5E4560E3/5983F7D4/5E9138BB" Ref="#PWR020"  Part="1" 
AR Path="/5E452A4F/5E456156/59842ECB/5E9138BB" Ref="#PWR047"  Part="1" 
AR Path="/5E452A4F/5E456156/59842FE8/5E9138BB" Ref="#PWR050"  Part="1" 
AR Path="/5E452A4F/5E45615B/59842ECB/5E9138BB" Ref="#PWR041"  Part="1" 
AR Path="/5E452A4F/5E45615B/59842FE8/5E9138BB" Ref="#PWR044"  Part="1" 
AR Path="/5E452A4F/5E456160/59842ECB/5E9138BB" Ref="#PWR035"  Part="1" 
AR Path="/5E452A4F/5E456160/59842FE8/5E9138BB" Ref="#PWR038"  Part="1" 
AR Path="/5E452A4F/5E456165/59842ECB/5E9138BB" Ref="#PWR029"  Part="1" 
AR Path="/5E452A4F/5E456165/59842FE8/5E9138BB" Ref="#PWR032"  Part="1" 
AR Path="/5E452A4F/5E45616A/59842ECB/5E9138BB" Ref="#PWR011"  Part="1" 
AR Path="/5E452A4F/5E45616A/59842FE8/5E9138BB" Ref="#PWR014"  Part="1" 
AR Path="/5E452A4F/5E45616E/5983F4B3/5E9138BB" Ref="#PWR023"  Part="1" 
AR Path="/5E452A4F/5E45616E/5983F7D4/5E9138BB" Ref="#PWR026"  Part="1" 
F 0 "#PWR084" H 4300 3400 50  0001 C CNN
F 1 "GND" H 4305 3477 50  0000 C CNN
F 2 "" H 4300 3650 50  0001 C CNN
F 3 "" H 4300 3650 50  0001 C CNN
	1    4300 3650
	1    0    0    -1  
$EndComp
$Comp
L power:GND #PWR083
U 1 1 5E9138BC
P 7000 3450
AR Path="/5E4D81A8/5E4DE9FE/5983DD90/5E9138BC" Ref="#PWR083"  Part="1" 
AR Path="/5E4D81A8/5E4DE9FE/5983E4FD/5E9138BC" Ref="#PWR086"  Part="1" 
AR Path="/5E452A4F/5E4560E3/5983F4B3/5E9138BC" Ref="#PWR019"  Part="1" 
AR Path="/5E452A4F/5E4560E3/5983F7D4/5E9138BC" Ref="#PWR022"  Part="1" 
AR Path="/5E452A4F/5E456156/59842ECB/5E9138BC" Ref="#PWR049"  Part="1" 
AR Path="/5E452A4F/5E456156/59842FE8/5E9138BC" Ref="#PWR052"  Part="1" 
AR Path="/5E452A4F/5E45615B/59842ECB/5E9138BC" Ref="#PWR043"  Part="1" 
AR Path="/5E452A4F/5E45615B/59842FE8/5E9138BC" Ref="#PWR046"  Part="1" 
AR Path="/5E452A4F/5E456160/59842ECB/5E9138BC" Ref="#PWR037"  Part="1" 
AR Path="/5E452A4F/5E456160/59842FE8/5E9138BC" Ref="#PWR040"  Part="1" 
AR Path="/5E452A4F/5E456165/59842ECB/5E9138BC" Ref="#PWR031"  Part="1" 
AR Path="/5E452A4F/5E456165/59842FE8/5E9138BC" Ref="#PWR034"  Part="1" 
AR Path="/5E452A4F/5E45616A/59842ECB/5E9138BC" Ref="#PWR013"  Part="1" 
AR Path="/5E452A4F/5E45616A/59842FE8/5E9138BC" Ref="#PWR016"  Part="1" 
AR Path="/5E452A4F/5E45616E/5983F4B3/5E9138BC" Ref="#PWR025"  Part="1" 
AR Path="/5E452A4F/5E45616E/5983F7D4/5E9138BC" Ref="#PWR028"  Part="1" 
F 0 "#PWR086" H 7000 3200 50  0001 C CNN
F 1 "GND" H 7005 3277 50  0000 C CNN
F 2 "" H 7000 3450 50  0001 C CNN
F 3 "" H 7000 3450 50  0001 C CNN
	1    7000 3450
	1    0    0    -1  
$EndComp
$Comp
L power:GND #PWR082
U 1 1 5E9138BD
P 5100 3150
AR Path="/5E4D81A8/5E4DE9FE/5983DD90/5E9138BD" Ref="#PWR082"  Part="1" 
AR Path="/5E4D81A8/5E4DE9FE/5983E4FD/5E9138BD" Ref="#PWR085"  Part="1" 
AR Path="/5E452A4F/5E4560E3/5983F4B3/5E9138BD" Ref="#PWR018"  Part="1" 
AR Path="/5E452A4F/5E4560E3/5983F7D4/5E9138BD" Ref="#PWR021"  Part="1" 
AR Path="/5E452A4F/5E456156/59842ECB/5E9138BD" Ref="#PWR048"  Part="1" 
AR Path="/5E452A4F/5E456156/59842FE8/5E9138BD" Ref="#PWR051"  Part="1" 
AR Path="/5E452A4F/5E45615B/59842ECB/5E9138BD" Ref="#PWR042"  Part="1" 
AR Path="/5E452A4F/5E45615B/59842FE8/5E9138BD" Ref="#PWR045"  Part="1" 
AR Path="/5E452A4F/5E456160/59842ECB/5E9138BD" Ref="#PWR036"  Part="1" 
AR Path="/5E452A4F/5E456160/59842FE8/5E9138BD" Ref="#PWR039"  Part="1" 
AR Path="/5E452A4F/5E456165/59842ECB/5E9138BD" Ref="#PWR030"  Part="1" 
AR Path="/5E452A4F/5E456165/59842FE8/5E9138BD" Ref="#PWR033"  Part="1" 
AR Path="/5E452A4F/5E45616A/59842ECB/5E9138BD" Ref="#PWR012"  Part="1" 
AR Path="/5E452A4F/5E45616A/59842FE8/5E9138BD" Ref="#PWR015"  Part="1" 
AR Path="/5E452A4F/5E45616E/5983F4B3/5E9138BD" Ref="#PWR024"  Part="1" 
AR Path="/5E452A4F/5E45616E/5983F7D4/5E9138BD" Ref="#PWR027"  Part="1" 
F 0 "#PWR085" H 5100 2900 50  0001 C CNN
F 1 "GND" H 5105 2977 50  0000 C CNN
F 2 "" H 5100 3150 50  0001 C CNN
F 3 "" H 5100 3150 50  0001 C CNN
	1    5100 3150
	1    0    0    -1  
$EndComp
Connection ~ 7000 3150
Wire Wire Line
	7000 3150 7300 3150
Connection ~ 4300 3350
Wire Wire Line
	4300 3350 4700 3350
Wire Wire Line
	6300 3750 6650 3750
Wire Wire Line
	6650 3900 6650 3750
Connection ~ 6650 3750
Wire Wire Line
	6650 3750 7300 3750
Wire Wire Line
	4700 3350 4700 3550
Wire Wire Line
	4700 3550 5100 3550
Connection ~ 4700 3550
Wire Wire Line
	4700 3550 4700 4200
$Comp
L power:PWR_FLAG #FLG0107
U 1 1 5EA2712F
P 4800 3350
AR Path="/5E452A4F/5E45616A/59842ECB/5EA2712F" Ref="#FLG0107"  Part="1" 
AR Path="/5E452A4F/5E45616A/59842FE8/5EA2712F" Ref="#FLG0108"  Part="1" 
AR Path="/5E452A4F/5E4560E3/5983F4B3/5EA2712F" Ref="#FLG0109"  Part="1" 
AR Path="/5E452A4F/5E4560E3/5983F7D4/5EA2712F" Ref="#FLG0110"  Part="1" 
AR Path="/5E452A4F/5E45616E/5983F4B3/5EA2712F" Ref="#FLG0111"  Part="1" 
AR Path="/5E452A4F/5E45616E/5983F7D4/5EA2712F" Ref="#FLG0112"  Part="1" 
AR Path="/5E452A4F/5E456165/59842ECB/5EA2712F" Ref="#FLG0113"  Part="1" 
AR Path="/5E452A4F/5E456165/59842FE8/5EA2712F" Ref="#FLG0114"  Part="1" 
AR Path="/5E452A4F/5E456160/59842ECB/5EA2712F" Ref="#FLG0115"  Part="1" 
AR Path="/5E452A4F/5E456160/59842FE8/5EA2712F" Ref="#FLG0116"  Part="1" 
AR Path="/5E452A4F/5E45615B/59842ECB/5EA2712F" Ref="#FLG0117"  Part="1" 
AR Path="/5E452A4F/5E45615B/59842FE8/5EA2712F" Ref="#FLG0118"  Part="1" 
AR Path="/5E452A4F/5E456156/59842ECB/5EA2712F" Ref="#FLG0119"  Part="1" 
AR Path="/5E452A4F/5E456156/59842FE8/5EA2712F" Ref="#FLG0120"  Part="1" 
AR Path="/5E4D81A8/5E4DE9FE/5983DD90/5EA2712F" Ref="#FLG0121"  Part="1" 
AR Path="/5E4D81A8/5E4DE9FE/5983E4FD/5EA2712F" Ref="#FLG0122"  Part="1" 
F 0 "#FLG0122" H 4800 3425 50  0001 C CNN
F 1 "PWR_FLAG" H 4800 3523 50  0000 C CNN
F 2 "" H 4800 3350 50  0001 C CNN
F 3 "~" H 4800 3350 50  0001 C CNN
	1    4800 3350
	1    0    0    -1  
$EndComp
Connection ~ 4800 3350
Wire Wire Line
	4800 3350 5100 3350
Wire Wire Line
	3600 3350 4300 3350
Wire Wire Line
	3600 4000 5100 4000
$EndSCHEMATC
