EESchema Schematic File Version 4
EELAYER 30 0
EELAYER END
$Descr A4 11693 8268
encoding utf-8
Sheet 39 41
Title ""
Date ""
Rev ""
Comp "LibreCube"
Comment1 ""
Comment2 ""
Comment3 ""
Comment4 ""
$EndDescr
Text HLabel 2350 3700 0    60   Input ~ 0
SEL_TMTC_IF_A
Text HLabel 2350 2850 0    60   Input ~ 0
SEL_TMTC_IF_B
$Comp
L 74xx:74HC02 U35
U 1 1 5985A285
P 3250 2950
F 0 "U35" H 3250 3000 50  0000 C CNN
F 1 "74HC02" H 3300 2900 50  0000 C CNN
F 2 "Package_SO:SSOP-14_5.3x6.2mm_P0.65mm" H 3250 2950 50  0001 C CNN
F 3 "" H 3250 2950 50  0000 C CNN
	1    3250 2950
	1    0    0    -1  
$EndComp
Text HLabel 9700 3150 2    60   Input ~ 0
CAN_A_H
Text HLabel 9700 3050 2    60   Input ~ 0
CAN_A_L
Text HLabel 9700 3400 2    60   Input ~ 0
CAN_B_H
Text HLabel 9700 3300 2    60   Input ~ 0
CAN_B_L
$Comp
L 74xx:74HC02 U35
U 2 1 5986F444
P 3250 3600
F 0 "U35" H 3250 3650 50  0000 C CNN
F 1 "74HC02" H 3300 3550 50  0000 C CNN
F 2 "Package_SO:SSOP-14_5.3x6.2mm_P0.65mm" H 3250 3600 50  0001 C CNN
F 3 "" H 3250 3600 50  0000 C CNN
	2    3250 3600
	1    0    0    -1  
$EndComp
Wire Wire Line
	2650 3500 2650 3300
Wire Wire Line
	2650 3300 3850 3300
Wire Wire Line
	3850 3300 3850 2950
Wire Wire Line
	2650 3050 2650 3250
Wire Wire Line
	2650 3250 3950 3250
Wire Wire Line
	3950 3250 3950 3600
Wire Wire Line
	3850 2950 4100 2950
$Comp
L Device:D D21
U 1 1 5986F54A
P 4250 2950
F 0 "D21" H 4250 3050 50  0000 C CNN
F 1 "D" H 4250 2850 50  0000 C CNN
F 2 "Diode_SMD:D_0805_2012Metric" H 4250 2950 50  0001 C CNN
F 3 "" H 4250 2950 50  0000 C CNN
	1    4250 2950
	-1   0    0    1   
$EndComp
$Comp
L 74xx:74HC02 U35
U 3 1 5986F65F
P 3250 4150
F 0 "U35" H 3250 4200 50  0000 C CNN
F 1 "74HC02" H 3300 4100 50  0000 C CNN
F 2 "Package_SO:SSOP-14_5.3x6.2mm_P0.65mm" H 3250 4150 50  0001 C CNN
F 3 "" H 3250 4150 50  0000 C CNN
	3    3250 4150
	1    0    0    -1  
$EndComp
$Comp
L 74xx:74HC02 U35
U 4 1 5986F665
P 3250 4800
F 0 "U35" H 3250 4850 50  0000 C CNN
F 1 "74HC02" H 3300 4750 50  0000 C CNN
F 2 "Package_SO:SSOP-14_5.3x6.2mm_P0.65mm" H 3250 4800 50  0001 C CNN
F 3 "" H 3250 4800 50  0000 C CNN
	4    3250 4800
	1    0    0    -1  
$EndComp
Wire Wire Line
	2650 4500 3850 4500
Wire Wire Line
	3850 4500 3850 4150
Wire Wire Line
	2650 4450 3950 4450
Wire Wire Line
	3950 4450 3950 4800
Wire Wire Line
	3850 4150 4100 4150
$Comp
L Device:D D22
U 1 1 5986F671
P 4250 4150
F 0 "D22" H 4250 4250 50  0000 C CNN
F 1 "D" H 4250 4050 50  0000 C CNN
F 2 "Diode_SMD:D_0805_2012Metric" H 4250 4150 50  0001 C CNN
F 3 "" H 4250 4150 50  0000 C CNN
	1    4250 4150
	-1   0    0    1   
$EndComp
Wire Wire Line
	2350 2850 2550 2850
Wire Wire Line
	2550 2850 2550 4050
Connection ~ 2550 2850
Wire Wire Line
	2350 3700 2500 3700
Wire Wire Line
	2500 3700 2500 4900
Connection ~ 2500 3700
Wire Wire Line
	2650 4250 2650 4450
Wire Wire Line
	2650 4500 2650 4700
$Comp
L Analog_Switch:TS5A3160DBV U39
U 2 1 59876C8E
P 5500 5350
F 0 "U39" H 5600 5500 50  0000 R CNN
F 1 "TS5A3160" H 5650 5600 50  0000 R CNN
F 2 "Package_TO_SOT_SMD:SOT-23-6" H 5550 5100 50  0001 L CNN
F 3 "" H 5600 5350 50  0000 C CNN
	2    5500 5350
	-1   0    0    -1  
$EndComp
Connection ~ 6050 3250
Connection ~ 5900 3050
Wire Wire Line
	8550 3050 8800 3050
Wire Wire Line
	8550 3150 8900 3150
Wire Wire Line
	8550 3300 9000 3300
Wire Wire Line
	8550 3400 9100 3400
Wire Wire Line
	4700 900  4700 1000
$Comp
L Regulator_Linear:TC1262-33 U37
U 1 1 5987867E
P 3900 1950
F 0 "U37" H 3900 2275 50  0000 C CNN
F 1 "TC1262-33VDB" H 3900 2200 50  0000 C CNN
F 2 "SOT-223" H 3950 1700 50  0001 L CIN
F 3 "" H 3900 1750 50  0001 C CNN
	1    3900 1950
	1    0    0    -1  
$EndComp
$Comp
L power:GND #PWR0140
U 1 1 5987878E
P 3900 2250
F 0 "#PWR0140" H 3900 2000 50  0001 C CNN
F 1 "GND" H 3900 2100 50  0000 C CNN
F 2 "" H 3900 2250 50  0000 C CNN
F 3 "" H 3900 2250 50  0000 C CNN
	1    3900 2250
	1    0    0    -1  
$EndComp
$Comp
L Device:C C58
U 1 1 598787CB
P 4400 2100
F 0 "C58" H 4425 2200 50  0000 L CNN
F 1 "1uF" H 4425 2000 50  0000 L CNN
F 2 "Capacitor_SMD:C_0805_2012Metric" H 4438 1950 50  0001 C CNN
F 3 "" H 4400 2100 50  0000 C CNN
	1    4400 2100
	1    0    0    -1  
$EndComp
$Comp
L power:GND #PWR0142
U 1 1 59878852
P 4400 2250
F 0 "#PWR0142" H 4400 2000 50  0001 C CNN
F 1 "GND" H 4400 2100 50  0000 C CNN
F 2 "" H 4400 2250 50  0000 C CNN
F 3 "" H 4400 2250 50  0000 C CNN
	1    4400 2250
	1    0    0    -1  
$EndComp
$Comp
L power:+5V #PWR0138
U 1 1 598788D9
P 3600 1950
F 0 "#PWR0138" H 3600 1800 50  0001 C CNN
F 1 "+5V" H 3600 2090 50  0000 C CNN
F 2 "" H 3600 1950 50  0000 C CNN
F 3 "" H 3600 1950 50  0000 C CNN
	1    3600 1950
	1    0    0    -1  
$EndComp
$Comp
L power:PWR_FLAG #FLG026
U 1 1 59878B72
P 5200 1000
F 0 "#FLG026" H 5200 1095 50  0001 C CNN
F 1 "PWR_FLAG" H 5200 1180 50  0000 C CNN
F 2 "" H 5200 1000 50  0000 C CNN
F 3 "" H 5200 1000 50  0000 C CNN
	1    5200 1000
	1    0    0    -1  
$EndComp
Connection ~ 8800 3050
Connection ~ 8900 3150
Connection ~ 9000 3300
Connection ~ 9100 3400
Text HLabel 9700 3750 2    60   Input ~ 0
LCL2_ON
Text HLabel 9700 3650 2    60   Input ~ 0
LCL1_ON
Text HLabel 9700 3950 2    60   Input ~ 0
LCL4_ON
Text HLabel 9700 3850 2    60   Input ~ 0
LCL3_ON
Text HLabel 9700 4050 2    60   Input ~ 0
LCL5_ON
Wire Wire Line
	8550 3650 9200 3650
Wire Wire Line
	8550 3750 9250 3750
Wire Wire Line
	8550 3850 9300 3850
Wire Wire Line
	8550 3950 9350 3950
Wire Wire Line
	8550 4050 9400 4050
$Sheet
S 7400 4350 1150 1250
U 5987B9DD
F0 "tmtc interface B" 60
F1 "tmtc interface.sch" 60
F2 "3V3" I L 7400 4500 60 
F3 "CAN_A_L" I R 8550 4500 60 
F4 "CAN_A_H" I R 8550 4600 60 
F5 "CAN_B_L" I R 8550 4750 60 
F6 "CAN_B_H" I R 8550 4850 60 
F7 "LCL1_ON" I R 8550 5100 60 
F8 "LCL2_ON" I R 8550 5200 60 
F9 "LCL3_ON" I R 8550 5300 60 
F10 "LCL4_ON" I R 8550 5400 60 
F11 "LCL5_ON" I R 8550 5500 60 
$EndSheet
Wire Wire Line
	7200 3250 7200 4500
Wire Wire Line
	7200 4500 7400 4500
Wire Wire Line
	8550 4500 8800 4500
Wire Wire Line
	8800 4500 8800 3050
Wire Wire Line
	8550 4600 8900 4600
Wire Wire Line
	8900 4600 8900 3150
Wire Wire Line
	8550 4750 9000 4750
Wire Wire Line
	9000 4750 9000 3300
Wire Wire Line
	8550 4850 9100 4850
Wire Wire Line
	9100 4850 9100 3400
Wire Wire Line
	8550 5100 9200 5100
Wire Wire Line
	9200 5100 9200 3650
Connection ~ 9200 3650
Wire Wire Line
	8550 5200 9250 5200
Wire Wire Line
	9250 5200 9250 3750
Connection ~ 9250 3750
Wire Wire Line
	8550 5300 9300 5300
Wire Wire Line
	9300 5300 9300 3850
Connection ~ 9300 3850
Wire Wire Line
	8550 5400 9350 5400
Wire Wire Line
	9350 5400 9350 3950
Connection ~ 9350 3950
Wire Wire Line
	8550 5500 9400 5500
Wire Wire Line
	9400 5500 9400 4050
Connection ~ 9400 4050
$Comp
L Regulator_Linear:TC1262-33 U36
U 1 1 598DE8A5
P 3900 1000
F 0 "U36" H 3900 1325 50  0000 C CNN
F 1 "TC1262-33VDB" H 3900 1250 50  0000 C CNN
F 2 "SOT-223" H 3950 750 50  0001 L CIN
F 3 "" H 3900 800 50  0001 C CNN
	1    3900 1000
	1    0    0    -1  
$EndComp
Connection ~ 4700 1950
Connection ~ 4700 1000
$Comp
L Device:C C57
U 1 1 598DEBB5
P 4400 1150
F 0 "C57" H 4425 1250 50  0000 L CNN
F 1 "1uF" H 4425 1050 50  0000 L CNN
F 2 "Capacitor_SMD:C_0805_2012Metric" H 4438 1000 50  0001 C CNN
F 3 "" H 4400 1150 50  0000 C CNN
	1    4400 1150
	1    0    0    -1  
$EndComp
$Comp
L power:GND #PWR0141
U 1 1 598DEE79
P 4400 1300
F 0 "#PWR0141" H 4400 1050 50  0001 C CNN
F 1 "GND" H 4400 1150 50  0000 C CNN
F 2 "" H 4400 1300 50  0000 C CNN
F 3 "" H 4400 1300 50  0000 C CNN
	1    4400 1300
	1    0    0    -1  
$EndComp
$Comp
L power:GND #PWR0139
U 1 1 598DEF20
P 3900 1300
F 0 "#PWR0139" H 3900 1050 50  0001 C CNN
F 1 "GND" H 3900 1150 50  0000 C CNN
F 2 "" H 3900 1300 50  0000 C CNN
F 3 "" H 3900 1300 50  0000 C CNN
	1    3900 1300
	1    0    0    -1  
$EndComp
$Comp
L power:+5V #PWR0137
U 1 1 598DEFC7
P 3600 1000
F 0 "#PWR0137" H 3600 850 50  0001 C CNN
F 1 "+5V" H 3600 1140 50  0000 C CNN
F 2 "" H 3600 1000 50  0000 C CNN
F 3 "" H 3600 1000 50  0000 C CNN
	1    3600 1000
	1    0    0    -1  
$EndComp
Wire Wire Line
	6050 3250 7200 3250
Wire Wire Line
	5900 3050 7400 3050
Wire Wire Line
	8800 3050 9700 3050
Wire Wire Line
	8900 3150 9700 3150
Wire Wire Line
	9000 3300 9700 3300
Wire Wire Line
	9100 3400 9700 3400
Wire Wire Line
	9200 3650 9700 3650
Wire Wire Line
	9250 3750 9700 3750
Wire Wire Line
	9300 3850 9700 3850
Wire Wire Line
	9350 3950 9700 3950
Wire Wire Line
	9400 4050 9700 4050
Wire Wire Line
	4700 1000 4700 1950
Wire Wire Line
	4200 1950 4400 1950
Wire Wire Line
	4200 1000 4400 1000
Wire Wire Line
	2550 2850 2950 2850
Wire Wire Line
	2650 3050 2950 3050
Wire Wire Line
	3550 2950 3850 2950
Connection ~ 3850 2950
Wire Wire Line
	2650 3500 2950 3500
Wire Wire Line
	2500 3700 2950 3700
Wire Wire Line
	3550 3600 3950 3600
Wire Wire Line
	2550 4050 2950 4050
Wire Wire Line
	2650 4250 2950 4250
Wire Wire Line
	3550 4150 3850 4150
Connection ~ 3850 4150
Wire Wire Line
	2650 4700 2950 4700
Wire Wire Line
	2500 4900 2950 4900
Wire Wire Line
	3550 4800 3950 4800
$Comp
L Analog_Switch:TS5A3160DBV U39
U 1 1 5985A744
P 5250 3250
F 0 "U39" H 5250 3399 50  0000 C CNN
F 1 "TS5A3160" H 5250 3490 50  0000 C CNN
F 2 "Package_TO_SOT_SMD:SOT-23-6" H 5300 3000 50  0001 L CNN
F 3 "" H 5350 3250 50  0000 C CNN
	1    5250 3250
	1    0    0    1   
$EndComp
Wire Wire Line
	5550 3050 5900 3050
Wire Wire Line
	5550 3250 6050 3250
Wire Wire Line
	4950 3150 4700 3150
Wire Wire Line
	4700 1950 4700 3150
Wire Wire Line
	4400 2950 4400 3800
Wire Wire Line
	5250 2850 4400 2850
Wire Wire Line
	4400 2850 4400 2950
Connection ~ 4400 2950
Wire Wire Line
	4950 4100 4700 4100
Wire Wire Line
	4700 4100 4700 3150
Connection ~ 4700 3150
Wire Wire Line
	5550 4000 5900 4000
Wire Wire Line
	5900 4000 5900 3050
Wire Wire Line
	5550 4200 6050 4200
Wire Wire Line
	6050 4200 6050 3250
Wire Wire Line
	5250 3800 4400 3800
Connection ~ 4400 3800
Wire Wire Line
	4400 3800 4400 4150
$Comp
L Analog_Switch:TS5A3160DBV U38
U 1 1 5E7E994B
P 5250 4200
F 0 "U38" H 5250 4349 50  0000 C CNN
F 1 "TS5A3160" H 5250 4440 50  0000 C CNN
F 2 "Package_TO_SOT_SMD:SOT-23-6" H 5300 3950 50  0001 L CNN
F 3 "" H 5350 4200 50  0000 C CNN
	1    5250 4200
	1    0    0    1   
$EndComp
$Comp
L Analog_Switch:TS5A3160DBV U38
U 2 1 5E7EA587
P 5950 5350
F 0 "U38" H 6050 5500 50  0000 R CNN
F 1 "TS5A3160" H 6100 5600 50  0000 R CNN
F 2 "Package_TO_SOT_SMD:SOT-23-6" H 6000 5100 50  0001 L CNN
F 3 "" H 6050 5350 50  0000 C CNN
	2    5950 5350
	-1   0    0    -1  
$EndComp
$Comp
L power:GND #PWR0145
U 1 1 5E7F1AFE
P 5700 5850
F 0 "#PWR0145" H 5700 5600 50  0001 C CNN
F 1 "GND" H 5700 5700 50  0000 C CNN
F 2 "" H 5700 5850 50  0000 C CNN
F 3 "" H 5700 5850 50  0000 C CNN
	1    5700 5850
	1    0    0    -1  
$EndComp
$Comp
L power:+5V #PWR0144
U 1 1 5E7F1D66
P 5700 4850
F 0 "#PWR0144" H 5700 4700 50  0001 C CNN
F 1 "+5V" H 5700 4990 50  0000 C CNN
F 2 "" H 5700 4850 50  0000 C CNN
F 3 "" H 5700 4850 50  0000 C CNN
	1    5700 4850
	1    0    0    -1  
$EndComp
Wire Wire Line
	5500 5850 5700 5850
Connection ~ 5700 5850
Wire Wire Line
	5700 5850 5950 5850
Wire Wire Line
	5500 4850 5700 4850
Connection ~ 5700 4850
Wire Wire Line
	5700 4850 5950 4850
$Sheet
S 7400 2900 1150 1250
U 598773FA
F0 "tmtc interface A" 60
F1 "tmtc interface.sch" 60
F2 "3V3" I L 7400 3050 60 
F3 "CAN_A_L" I R 8550 3050 60 
F4 "CAN_A_H" I R 8550 3150 60 
F5 "CAN_B_L" I R 8550 3300 60 
F6 "CAN_B_H" I R 8550 3400 60 
F7 "LCL1_ON" I R 8550 3650 60 
F8 "LCL2_ON" I R 8550 3750 60 
F9 "LCL3_ON" I R 8550 3850 60 
F10 "LCL4_ON" I R 8550 3950 60 
F11 "LCL5_ON" I R 8550 4050 60 
$EndSheet
$Comp
L power:VCC #PWR?
U 1 1 5E9AF9B0
P 4700 900
AR Path="/5E9AF9B0" Ref="#PWR?"  Part="1" 
AR Path="/598681C9/5E9AF9B0" Ref="#PWR0143"  Part="1" 
F 0 "#PWR0143" H 4700 750 50  0001 C CNN
F 1 "VCC" H 4700 1050 50  0000 C CNN
F 2 "" H 4700 900 50  0000 C CNN
F 3 "" H 4700 900 50  0000 C CNN
	1    4700 900 
	1    0    0    -1  
$EndComp
Connection ~ 4400 1000
Wire Wire Line
	4400 1000 4700 1000
Connection ~ 4400 1950
Wire Wire Line
	4400 1950 4700 1950
Wire Wire Line
	4700 1000 5200 1000
$Comp
L 74xx:74HC02 U35
U 5 1 5E9289D8
P 4600 5350
F 0 "U35" H 4600 5400 50  0000 C CNN
F 1 "74HC02" H 4650 5300 50  0000 C CNN
F 2 "Package_SO:SSOP-14_5.3x6.2mm_P0.65mm" H 4600 5350 50  0001 C CNN
F 3 "" H 4600 5350 50  0000 C CNN
	5    4600 5350
	1    0    0    -1  
$EndComp
$Comp
L power:GND #PWR0148
U 1 1 5E92DCC3
P 4600 5950
F 0 "#PWR0148" H 4600 5700 50  0001 C CNN
F 1 "GND" H 4600 5800 50  0000 C CNN
F 2 "" H 4600 5950 50  0000 C CNN
F 3 "" H 4600 5950 50  0000 C CNN
	1    4600 5950
	1    0    0    -1  
$EndComp
$Comp
L power:+5V #PWR0149
U 1 1 5E92EBC8
P 4600 4800
F 0 "#PWR0149" H 4600 4650 50  0001 C CNN
F 1 "+5V" H 4600 4940 50  0000 C CNN
F 2 "" H 4600 4800 50  0000 C CNN
F 3 "" H 4600 4800 50  0000 C CNN
	1    4600 4800
	1    0    0    -1  
$EndComp
Wire Wire Line
	4600 4800 4600 4850
Wire Wire Line
	4600 5950 4600 5850
$EndSCHEMATC
