EESchema Schematic File Version 4
EELAYER 30 0
EELAYER END
$Descr A4 11693 8268
encoding utf-8
Sheet 41 41
Title ""
Date ""
Rev ""
Comp "LibreCube"
Comment1 ""
Comment2 ""
Comment3 ""
Comment4 ""
$EndDescr
Text HLabel 5450 3350 2    60   Input ~ 0
CAN_A_L
Text HLabel 5450 3450 2    60   Input ~ 0
CAN_A_H
Text HLabel 5450 3750 2    60   Input ~ 0
LCL1_ON
Text HLabel 5450 3850 2    60   Input ~ 0
LCL2_ON
Text HLabel 5450 3950 2    60   Input ~ 0
LCL3_ON
Text HLabel 5450 4050 2    60   Input ~ 0
LCL4_ON
Text HLabel 5450 4150 2    60   Input ~ 0
LCL5_ON
Text HLabel 5450 3650 2    60   Input ~ 0
CAN_B_H
Text HLabel 5450 3550 2    60   Input ~ 0
CAN_B_L
$Comp
L Connector_Generic:Conn_01x11 J3
U 1 1 5E9A7D37
P 5050 3650
AR Path="/598681C9/598773FA/5E9A7D37" Ref="J3"  Part="1" 
AR Path="/598681C9/5987B9DD/5E9A7D37" Ref="J2"  Part="1" 
AR Path="/598681C9/598773FA/598773FA/5E9A7D37" Ref="J?"  Part="1" 
AR Path="/598681C9/598773FA/5E9995D6/5E9A7D37" Ref="J?"  Part="1" 
AR Path="/598681C9/5987B9DD/598773FA/5E9A7D37" Ref="J?"  Part="1" 
AR Path="/598681C9/5987B9DD/5E9995D6/5E9A7D37" Ref="J?"  Part="1" 
F 0 "J3" H 4968 4367 50  0000 C CNN
F 1 "Conn_01x11" H 4968 4276 50  0000 C CNN
F 2 "Connector_PinHeader_2.54mm:PinHeader_1x11_P2.54mm_Vertical" H 5050 3650 50  0001 C CNN
F 3 "~" H 5050 3650 50  0001 C CNN
	1    5050 3650
	-1   0    0    -1  
$EndComp
Text HLabel 5450 3150 2    60   Input ~ 0
3V3
Wire Wire Line
	5450 3150 5250 3150
Wire Wire Line
	5450 3350 5250 3350
Wire Wire Line
	5450 3450 5250 3450
Wire Wire Line
	5450 3550 5250 3550
Wire Wire Line
	5450 3650 5250 3650
Wire Wire Line
	5450 3750 5250 3750
Wire Wire Line
	5450 3850 5250 3850
Wire Wire Line
	5450 3950 5250 3950
Wire Wire Line
	5450 4050 5250 4050
Wire Wire Line
	5450 4150 5250 4150
$Comp
L power:GND #PWR0147
U 1 1 5E9A7D48
P 6100 3250
AR Path="/598681C9/598773FA/5E9A7D48" Ref="#PWR0147"  Part="1" 
AR Path="/598681C9/5987B9DD/5E9A7D48" Ref="#PWR0146"  Part="1" 
AR Path="/598681C9/598773FA/598773FA/5E9A7D48" Ref="#PWR?"  Part="1" 
AR Path="/598681C9/598773FA/5E9995D6/5E9A7D48" Ref="#PWR?"  Part="1" 
AR Path="/598681C9/5987B9DD/598773FA/5E9A7D48" Ref="#PWR?"  Part="1" 
AR Path="/598681C9/5987B9DD/5E9995D6/5E9A7D48" Ref="#PWR?"  Part="1" 
F 0 "#PWR0147" H 6100 3000 50  0001 C CNN
F 1 "GND" H 6105 3077 50  0000 C CNN
F 2 "" H 6100 3250 50  0001 C CNN
F 3 "" H 6100 3250 50  0001 C CNN
	1    6100 3250
	1    0    0    -1  
$EndComp
Wire Wire Line
	6100 3250 5250 3250
$EndSCHEMATC
